detectorPiso/simulation/qsim/detectorPiso.msim.vcd
$comment
	File created using the following command:
		vcd file detectorPiso.msim.vcd -direction
$end
$date
	Mon Mar 31 01:28:50 2025
$end
$version
	ModelSim Version 10.1d
$end
$timescale
	1ps
$end
$scope module detectorPiso_vlg_vec_tst $end
$var reg 1 ! bajar $end
$var reg 1 " clk $end
$var reg 3 # pet1 [2:0] $end
$var reg 3 $ pet2 [2:0] $end
$var reg 1 % quieto $end
$var reg 1 & subir $end
$var wire 1 ' pisoActual [2] $end
$var wire 1 ( pisoActual [1] $end
$var wire 1 ) pisoActual [0] $end
$var wire 1 * reset1 $end
$var wire 1 + reset2 $end
$var wire 1 , sampler $end
$scope module i1 $end
$var wire 1 - gnd $end
$var wire 1 . vcc $end
$var wire 1 / unknown $end
$var tri1 1 0 devclrn $end
$var tri1 1 1 devpor $end
$var tri1 1 2 devoe $end
$var wire 1 3 pisoActual[0]~output_o $end
$var wire 1 4 pisoActual[1]~output_o $end
$var wire 1 5 pisoActual[2]~output_o $end
$var wire 1 6 reset1~output_o $end
$var wire 1 7 reset2~output_o $end
$var wire 1 8 clk~input_o $end
$var wire 1 9 U2|contador~0_combout $end
$var wire 1 : U2|contador[1]~feeder_combout $end
$var wire 1 ; U2|contador~1_combout $end
$var wire 1 < U2|contador[0]~feeder_combout $end
$var wire 1 = U3|Equal0~combout $end
$var wire 1 > U3|Equal0~clkctrl_outclk $end
$var wire 1 ? subir~input_o $end
$var wire 1 @ quieto~input_o $end
$var wire 1 A bajar~input_o $end
$var wire 1 B U4|piso[0]~0_combout $end
$var wire 1 C U4|Add0~0_combout $end
$var wire 1 D U4|piso[0]~1_combout $end
$var wire 1 E U4|Add0~1_combout $end
$var wire 1 F pet1[2]~input_o $end
$var wire 1 G pet1[1]~input_o $end
$var wire 1 H pet1[0]~input_o $end
$var wire 1 I U5|Equal0~0_combout $end
$var wire 1 J U5|Equal0~1_combout $end
$var wire 1 K pet2[1]~input_o $end
$var wire 1 L pet2[0]~input_o $end
$var wire 1 M U6|Equal0~0_combout $end
$var wire 1 N pet2[2]~input_o $end
$var wire 1 O U6|Equal0~1_combout $end
$var wire 1 P U2|contador [1] $end
$var wire 1 Q U2|contador [0] $end
$var wire 1 R U4|piso [2] $end
$var wire 1 S U4|piso [1] $end
$var wire 1 T U4|piso [0] $end
$upscope $end
$upscope $end
$enddefinitions $end
#0
$dumpvars
0!
0"
b101 #
b10 $
1%
0&
1)
0(
0'
0*
0+
x,
0-
1.
x/
10
11
12
13
04
05
06
07
08
09
0:
1;
1<
0=
0>
0?
1@
0A
0B
0C
0D
0E
1F
0G
1H
1I
0J
1K
0L
0M
0N
0O
0Q
0P
0T
0S
0R
$end
#10000
1"
18
0,
1Q
0;
19
0<
1:
#20000
0"
08
1,
#30000
1"
18
0,
0Q
1P
1=
09
1>
0:
#40000
0"
08
1,
#50000
1"
18
0,
0P
0=
1;
0>
1<
#60000
0"
08
1,
#70000
1"
18
0,
1Q
0;
19
0<
1:
#80000
0"
08
1,
#90000
1"
18
0,
0Q
1P
1=
09
1>
0:
#100000
0"
08
1,
#110000
1"
18
0,
0P
0=
1;
0>
1<
#120000
0"
08
1,
#130000
1"
18
0,
1Q
0;
19
0<
1:
#140000
0"
08
1,
#150000
1"
18
0,
0Q
1P
1=
09
1>
0:
#160000
0"
08
1,
#170000
1"
18
0,
0P
0=
1;
0>
1<
#180000
0"
08
1,
#190000
1"
18
0,
1Q
0;
19
0<
1:
#200000
0"
08
1,
#210000
1"
18
0,
0Q
1P
1=
09
1>
0:
#220000
0"
08
1,
#230000
1"
18
0,
0P
0=
1;
0>
1<
#240000
1&
0"
1?
08
1,
1C
#250000
1"
18
0,
1Q
0;
19
0<
1:
#260000
0"
08
1,
#270000
1"
18
0,
0Q
1P
1=
09
1>
0:
#280000
0"
08
1,
#290000
1"
18
0,
0P
0=
1;
0>
1<
#300000
0&
0"
0?
08
1,
0C
#310000
1"
18
0,
1Q
0;
19
0<
1:
#320000
0"
08
1,
#330000
1"
18
0,
0Q
1P
1=
09
1>
0:
#340000
0"
08
1,
#350000
1"
18
0,
0P
0=
1;
0>
1<
#360000
0"
08
1,
#370000
1"
18
0,
1Q
0;
19
0<
1:
#380000
0"
08
1,
#390000
1"
18
0,
0Q
1P
1=
09
1>
0:
#400000
0"
08
1,
#410000
1"
18
0,
0P
0=
1;
0>
1<
#420000
0"
08
1,
#430000
1"
18
0,
1Q
0;
19
0<
1:
#440000
0"
08
1,
#450000
1"
18
0,
0Q
1P
1=
09
1>
0:
#460000
0"
08
1,
#470000
1"
18
0,
0P
0=
1;
0>
1<
#480000
0"
08
1,
#490000
1"
18
0,
1Q
0;
19
0<
1:
#500000
0"
08
1,
#510000
1"
18
0,
0Q
1P
1=
09
1>
0:
#520000
0"
08
1,
#530000
1"
18
0,
0P
0=
1;
0>
1<
#540000
1&
0"
1?
08
1,
1C
#550000
1"
18
0,
1Q
0;
19
0<
1:
#560000
0"
08
1,
#570000
1"
18
0,
0Q
1P
1=
09
1>
0:
#580000
0"
08
1,
#590000
1"
18
0,
0P
0=
1;
0>
1<
#600000
0&
0"
0?
08
1,
0C
#610000
1"
18
0,
1Q
0;
19
0<
1:
#620000
0"
08
1,
#630000
1"
18
0,
0Q
1P
1=
09
1>
0:
#640000
0"
08
1,
#650000
1"
18
0,
0P
0=
1;
0>
1<
#660000
0"
08
1,
#670000
1"
18
0,
1Q
0;
19
0<
1:
#680000
0"
08
1,
#690000
1"
18
0,
0Q
1P
1=
09
1>
0:
#700000
0"
08
1,
#710000
1"
18
0,
0P
0=
1;
0>
1<
#720000
0"
08
1,
#730000
1"
18
0,
1Q
0;
19
0<
1:
#740000
0"
08
1,
#750000
1"
18
0,
0Q
1P
1=
09
1>
0:
#760000
0"
08
1,
#770000
1"
18
0,
0P
0=
1;
0>
1<
#780000
0"
08
1,
#790000
1"
18
0,
1Q
0;
19
0<
1:
#800000
0"
08
1,
#810000
1"
18
0,
0Q
1P
1=
09
1>
0:
#820000
0"
08
1,
#830000
1"
18
0,
0P
0=
1;
0>
1<
#840000
1&
0"
1?
08
1,
1C
#850000
1"
18
0,
1Q
0;
19
0<
1:
#860000
0"
08
1,
#870000
1"
18
0,
0Q
1P
1=
09
1>
0:
#880000
0"
08
1,
#890000
1"
18
0,
0P
0=
1;
0>
1<
#900000
0&
0"
0?
08
1,
0C
#910000
1"
18
0,
1Q
0;
19
0<
1:
#920000
0"
08
1,
#930000
1"
18
0,
0Q
1P
1=
09
1>
0:
#940000
0"
08
1,
#950000
1"
18
0,
0P
0=
1;
0>
1<
#960000
0"
08
1,
#970000
1"
18
0,
1Q
0;
19
0<
1:
#980000
0"
08
1,
#990000
1"
18
0,
0Q
1P
1=
09
1>
0:
