decun/simulation/qsim/decun.msim.vcd
$comment
	File created using the following command:
		vcd file decun.msim.vcd -direction
$end
$date
	Mon Feb 24 23:09:45 2025
$end
$version
	ModelSim Version 10.1d
$end
$timescale
	1ps
$end
$scope module decun_vlg_vec_tst $end
$var reg 5 ! sum [4:0] $end
$var wire 1 " dec [3] $end
$var wire 1 # dec [2] $end
$var wire 1 $ dec [1] $end
$var wire 1 % dec [0] $end
$var wire 1 & un [3] $end
$var wire 1 ' un [2] $end
$var wire 1 ( un [1] $end
$var wire 1 ) un [0] $end
$var wire 1 * sampler $end
$scope module i1 $end
$var wire 1 + gnd $end
$var wire 1 , vcc $end
$var wire 1 - unknown $end
$var tri1 1 . devclrn $end
$var tri1 1 / devpor $end
$var tri1 1 0 devoe $end
$var wire 1 1 dec[0]~output_o $end
$var wire 1 2 dec[1]~output_o $end
$var wire 1 3 dec[2]~output_o $end
$var wire 1 4 dec[3]~output_o $end
$var wire 1 5 un[0]~output_o $end
$var wire 1 6 un[1]~output_o $end
$var wire 1 7 un[2]~output_o $end
$var wire 1 8 un[3]~output_o $end
$var wire 1 9 sum[4]~input_o $end
$var wire 1 : sum[3]~input_o $end
$var wire 1 ; sum[2]~input_o $end
$var wire 1 < Div0|auto_generated|divider|divider|add_sub_30_result_int[1]~1 $end
$var wire 1 = Div0|auto_generated|divider|divider|add_sub_30_result_int[2]~3 $end
$var wire 1 > Div0|auto_generated|divider|divider|add_sub_30_result_int[3]~5 $end
$var wire 1 ? Div0|auto_generated|divider|divider|add_sub_30_result_int[4]~6_combout $end
$var wire 1 @ Div0|auto_generated|divider|divider|add_sub_30_result_int[4]~7 $end
$var wire 1 A Div0|auto_generated|divider|divider|add_sub_30_result_int[5]~9_cout $end
$var wire 1 B Div0|auto_generated|divider|divider|add_sub_30_result_int[6]~10_combout $end
$var wire 1 C Div0|auto_generated|divider|divider|StageOut[184]~0_combout $end
$var wire 1 D Div0|auto_generated|divider|divider|add_sub_30_result_int[3]~4_combout $end
$var wire 1 E Div0|auto_generated|divider|divider|StageOut[183]~2_combout $end
$var wire 1 F Div0|auto_generated|divider|divider|StageOut[183]~1_combout $end
$var wire 1 G Div0|auto_generated|divider|divider|StageOut[182]~3_combout $end
$var wire 1 H Div0|auto_generated|divider|divider|add_sub_30_result_int[2]~2_combout $end
$var wire 1 I Div0|auto_generated|divider|divider|StageOut[182]~4_combout $end
$var wire 1 J Div0|auto_generated|divider|divider|add_sub_30_result_int[1]~0_combout $end
$var wire 1 K Div0|auto_generated|divider|divider|StageOut[181]~6_combout $end
$var wire 1 L Div0|auto_generated|divider|divider|StageOut[181]~5_combout $end
$var wire 1 M sum[1]~input_o $end
$var wire 1 N Div0|auto_generated|divider|divider|StageOut[180]~7_combout $end
$var wire 1 O Div0|auto_generated|divider|divider|StageOut[180]~8_combout $end
$var wire 1 P Div0|auto_generated|divider|divider|add_sub_31_result_int[1]~1_cout $end
$var wire 1 Q Div0|auto_generated|divider|divider|add_sub_31_result_int[2]~3_cout $end
$var wire 1 R Div0|auto_generated|divider|divider|add_sub_31_result_int[3]~5_cout $end
$var wire 1 S Div0|auto_generated|divider|divider|add_sub_31_result_int[4]~7_cout $end
$var wire 1 T Div0|auto_generated|divider|divider|add_sub_31_result_int[5]~9_cout $end
$var wire 1 U Div0|auto_generated|divider|divider|add_sub_31_result_int[6]~10_combout $end
$var wire 1 V sum[0]~input_o $end
$var wire 1 W Mod0|auto_generated|divider|divider|add_sub_30_result_int[1]~1 $end
$var wire 1 X Mod0|auto_generated|divider|divider|add_sub_30_result_int[2]~3 $end
$var wire 1 Y Mod0|auto_generated|divider|divider|add_sub_30_result_int[3]~5 $end
$var wire 1 Z Mod0|auto_generated|divider|divider|add_sub_30_result_int[4]~7 $end
$var wire 1 [ Mod0|auto_generated|divider|divider|add_sub_30_result_int[5]~9 $end
$var wire 1 \ Mod0|auto_generated|divider|divider|add_sub_30_result_int[6]~11 $end
$var wire 1 ] Mod0|auto_generated|divider|divider|add_sub_30_result_int[7]~13 $end
$var wire 1 ^ Mod0|auto_generated|divider|divider|add_sub_30_result_int[8]~15 $end
$var wire 1 _ Mod0|auto_generated|divider|divider|add_sub_30_result_int[9]~17 $end
$var wire 1 ` Mod0|auto_generated|divider|divider|add_sub_30_result_int[10]~19 $end
$var wire 1 a Mod0|auto_generated|divider|divider|add_sub_30_result_int[11]~21 $end
$var wire 1 b Mod0|auto_generated|divider|divider|add_sub_30_result_int[12]~23 $end
$var wire 1 c Mod0|auto_generated|divider|divider|add_sub_30_result_int[13]~25 $end
$var wire 1 d Mod0|auto_generated|divider|divider|add_sub_30_result_int[14]~27 $end
$var wire 1 e Mod0|auto_generated|divider|divider|add_sub_30_result_int[15]~29 $end
$var wire 1 f Mod0|auto_generated|divider|divider|add_sub_30_result_int[16]~31 $end
$var wire 1 g Mod0|auto_generated|divider|divider|add_sub_30_result_int[17]~33 $end
$var wire 1 h Mod0|auto_generated|divider|divider|add_sub_30_result_int[18]~35 $end
$var wire 1 i Mod0|auto_generated|divider|divider|add_sub_30_result_int[19]~37 $end
$var wire 1 j Mod0|auto_generated|divider|divider|add_sub_30_result_int[20]~39 $end
$var wire 1 k Mod0|auto_generated|divider|divider|add_sub_30_result_int[21]~41 $end
$var wire 1 l Mod0|auto_generated|divider|divider|add_sub_30_result_int[22]~43 $end
$var wire 1 m Mod0|auto_generated|divider|divider|add_sub_30_result_int[23]~45 $end
$var wire 1 n Mod0|auto_generated|divider|divider|add_sub_30_result_int[24]~47 $end
$var wire 1 o Mod0|auto_generated|divider|divider|add_sub_30_result_int[25]~49 $end
$var wire 1 p Mod0|auto_generated|divider|divider|add_sub_30_result_int[26]~51 $end
$var wire 1 q Mod0|auto_generated|divider|divider|add_sub_30_result_int[27]~53 $end
$var wire 1 r Mod0|auto_generated|divider|divider|add_sub_30_result_int[28]~55 $end
$var wire 1 s Mod0|auto_generated|divider|divider|add_sub_30_result_int[29]~57 $end
$var wire 1 t Mod0|auto_generated|divider|divider|add_sub_30_result_int[30]~59 $end
$var wire 1 u Mod0|auto_generated|divider|divider|add_sub_30_result_int[31]~60_combout $end
$var wire 1 v Mod0|auto_generated|divider|divider|StageOut[960]~0_combout $end
$var wire 1 w Mod0|auto_generated|divider|divider|StageOut[960]~1_combout $end
$var wire 1 x Mod0|auto_generated|divider|divider|add_sub_31_result_int[1]~0_combout $end
$var wire 1 y Mod0|auto_generated|divider|divider|add_sub_30_result_int[30]~58_combout $end
$var wire 1 z Mod0|auto_generated|divider|divider|add_sub_30_result_int[29]~56_combout $end
$var wire 1 { Mod0|auto_generated|divider|divider|add_sub_30_result_int[28]~54_combout $end
$var wire 1 | Mod0|auto_generated|divider|divider|add_sub_30_result_int[27]~52_combout $end
$var wire 1 } Mod0|auto_generated|divider|divider|add_sub_30_result_int[26]~50_combout $end
$var wire 1 ~ Mod0|auto_generated|divider|divider|add_sub_30_result_int[25]~48_combout $end
$var wire 1 !! Mod0|auto_generated|divider|divider|add_sub_30_result_int[24]~46_combout $end
$var wire 1 "! Mod0|auto_generated|divider|divider|add_sub_30_result_int[23]~44_combout $end
$var wire 1 #! Mod0|auto_generated|divider|divider|add_sub_30_result_int[22]~42_combout $end
$var wire 1 $! Mod0|auto_generated|divider|divider|add_sub_30_result_int[21]~40_combout $end
$var wire 1 %! Mod0|auto_generated|divider|divider|add_sub_30_result_int[20]~38_combout $end
$var wire 1 &! Mod0|auto_generated|divider|divider|add_sub_30_result_int[19]~36_combout $end
$var wire 1 '! Mod0|auto_generated|divider|divider|add_sub_30_result_int[18]~34_combout $end
$var wire 1 (! Mod0|auto_generated|divider|divider|add_sub_30_result_int[17]~32_combout $end
$var wire 1 )! Mod0|auto_generated|divider|divider|add_sub_30_result_int[16]~30_combout $end
$var wire 1 *! Mod0|auto_generated|divider|divider|add_sub_30_result_int[15]~28_combout $end
$var wire 1 +! Mod0|auto_generated|divider|divider|add_sub_30_result_int[14]~26_combout $end
$var wire 1 ,! Mod0|auto_generated|divider|divider|add_sub_30_result_int[13]~24_combout $end
$var wire 1 -! Mod0|auto_generated|divider|divider|add_sub_30_result_int[12]~22_combout $end
$var wire 1 .! Mod0|auto_generated|divider|divider|add_sub_30_result_int[11]~20_combout $end
$var wire 1 /! Mod0|auto_generated|divider|divider|add_sub_30_result_int[10]~18_combout $end
$var wire 1 0! Mod0|auto_generated|divider|divider|add_sub_30_result_int[9]~16_combout $end
$var wire 1 1! Mod0|auto_generated|divider|divider|add_sub_30_result_int[8]~14_combout $end
$var wire 1 2! Mod0|auto_generated|divider|divider|add_sub_30_result_int[7]~12_combout $end
$var wire 1 3! Mod0|auto_generated|divider|divider|StageOut[967]~2_combout $end
$var wire 1 4! Mod0|auto_generated|divider|divider|add_sub_30_result_int[6]~10_combout $end
$var wire 1 5! Mod0|auto_generated|divider|divider|StageOut[966]~3_combout $end
$var wire 1 6! Mod0|auto_generated|divider|divider|add_sub_30_result_int[5]~8_combout $end
$var wire 1 7! Mod0|auto_generated|divider|divider|StageOut[965]~4_combout $end
$var wire 1 8! Mod0|auto_generated|divider|divider|add_sub_30_result_int[4]~6_combout $end
$var wire 1 9! Mod0|auto_generated|divider|divider|StageOut[964]~5_combout $end
$var wire 1 :! Mod0|auto_generated|divider|divider|add_sub_30_result_int[3]~4_combout $end
$var wire 1 ;! Mod0|auto_generated|divider|divider|StageOut[963]~7_combout $end
$var wire 1 <! Mod0|auto_generated|divider|divider|StageOut[963]~6_combout $end
$var wire 1 =! Mod0|auto_generated|divider|divider|add_sub_30_result_int[2]~2_combout $end
$var wire 1 >! Mod0|auto_generated|divider|divider|StageOut[962]~9_combout $end
$var wire 1 ?! Mod0|auto_generated|divider|divider|StageOut[962]~8_combout $end
$var wire 1 @! Mod0|auto_generated|divider|divider|add_sub_30_result_int[1]~0_combout $end
$var wire 1 A! Mod0|auto_generated|divider|divider|StageOut[961]~11_combout $end
$var wire 1 B! Mod0|auto_generated|divider|divider|StageOut[961]~10_combout $end
$var wire 1 C! Mod0|auto_generated|divider|divider|add_sub_31_result_int[1]~1 $end
$var wire 1 D! Mod0|auto_generated|divider|divider|add_sub_31_result_int[2]~3 $end
$var wire 1 E! Mod0|auto_generated|divider|divider|add_sub_31_result_int[3]~5 $end
$var wire 1 F! Mod0|auto_generated|divider|divider|add_sub_31_result_int[4]~7_cout $end
$var wire 1 G! Mod0|auto_generated|divider|divider|add_sub_31_result_int[5]~9_cout $end
$var wire 1 H! Mod0|auto_generated|divider|divider|add_sub_31_result_int[6]~11_cout $end
$var wire 1 I! Mod0|auto_generated|divider|divider|add_sub_31_result_int[7]~13_cout $end
$var wire 1 J! Mod0|auto_generated|divider|divider|add_sub_31_result_int[8]~15_cout $end
$var wire 1 K! Mod0|auto_generated|divider|divider|add_sub_31_result_int[9]~17_cout $end
$var wire 1 L! Mod0|auto_generated|divider|divider|add_sub_31_result_int[10]~19_cout $end
$var wire 1 M! Mod0|auto_generated|divider|divider|add_sub_31_result_int[11]~21_cout $end
$var wire 1 N! Mod0|auto_generated|divider|divider|add_sub_31_result_int[12]~23_cout $end
$var wire 1 O! Mod0|auto_generated|divider|divider|add_sub_31_result_int[13]~25_cout $end
$var wire 1 P! Mod0|auto_generated|divider|divider|add_sub_31_result_int[14]~27_cout $end
$var wire 1 Q! Mod0|auto_generated|divider|divider|add_sub_31_result_int[15]~29_cout $end
$var wire 1 R! Mod0|auto_generated|divider|divider|add_sub_31_result_int[16]~31_cout $end
$var wire 1 S! Mod0|auto_generated|divider|divider|add_sub_31_result_int[17]~33_cout $end
$var wire 1 T! Mod0|auto_generated|divider|divider|add_sub_31_result_int[18]~35_cout $end
$var wire 1 U! Mod0|auto_generated|divider|divider|add_sub_31_result_int[19]~37_cout $end
$var wire 1 V! Mod0|auto_generated|divider|divider|add_sub_31_result_int[20]~39_cout $end
$var wire 1 W! Mod0|auto_generated|divider|divider|add_sub_31_result_int[21]~41_cout $end
$var wire 1 X! Mod0|auto_generated|divider|divider|add_sub_31_result_int[22]~43_cout $end
$var wire 1 Y! Mod0|auto_generated|divider|divider|add_sub_31_result_int[23]~45_cout $end
$var wire 1 Z! Mod0|auto_generated|divider|divider|add_sub_31_result_int[24]~47_cout $end
$var wire 1 [! Mod0|auto_generated|divider|divider|add_sub_31_result_int[25]~49_cout $end
$var wire 1 \! Mod0|auto_generated|divider|divider|add_sub_31_result_int[26]~51_cout $end
$var wire 1 ]! Mod0|auto_generated|divider|divider|add_sub_31_result_int[27]~53_cout $end
$var wire 1 ^! Mod0|auto_generated|divider|divider|add_sub_31_result_int[28]~55_cout $end
$var wire 1 _! Mod0|auto_generated|divider|divider|add_sub_31_result_int[29]~57_cout $end
$var wire 1 `! Mod0|auto_generated|divider|divider|add_sub_31_result_int[30]~59_cout $end
$var wire 1 a! Mod0|auto_generated|divider|divider|add_sub_31_result_int[31]~61_cout $end
$var wire 1 b! Mod0|auto_generated|divider|divider|add_sub_31_result_int[32]~62_combout $end
$var wire 1 c! Mod0|auto_generated|divider|divider|StageOut[993]~12_combout $end
$var wire 1 d! Mod0|auto_generated|divider|divider|add_sub_31_result_int[2]~2_combout $end
$var wire 1 e! Mod0|auto_generated|divider|divider|StageOut[994]~13_combout $end
$var wire 1 f! Mod0|auto_generated|divider|divider|add_sub_31_result_int[3]~4_combout $end
$var wire 1 g! Mod0|auto_generated|divider|divider|StageOut[995]~14_combout $end
$upscope $end
$upscope $end
$enddefinitions $end
#0
$dumpvars
b0 !
0%
0$
0#
0"
0)
0(
0'
0&
x*
0+
1,
x-
1.
1/
10
01
02
03
04
05
06
07
08
09
0:
0;
0<
1=
0>
1?
1@
0A
1B
0C
0D
0E
0F
0G
1H
0I
1J
0K
0L
0M
0N
0O
0P
1Q
0R
1S
0T
1U
0V
0W
1X
0Y
1Z
0[
1\
0]
1^
0_
1`
0a
1b
0c
1d
0e
1f
0g
1h
0i
1j
0k
1l
0m
1n
0o
1p
0q
1r
0s
1t
1u
0v
0w
1x
1y
1z
1{
1|
1}
1~
1!!
1"!
1#!
1$!
1%!
1&!
1'!
1(!
1)!
1*!
1+!
1,!
1-!
1.!
1/!
10!
11!
12!
03!
14!
05!
16!
07!
18!
09!
0:!
0;!
0<!
1=!
0>!
0?!
1@!
0A!
0B!
0C!
1D!
0E!
1F!
0G!
1H!
0I!
1J!
0K!
1L!
0M!
1N!
0O!
1P!
0Q!
1R!
0S!
1T!
0U!
1V!
0W!
1X!
0Y!
1Z!
0[!
1\!
0]!
1^!
0_!
1`!
0a!
1b!
0c!
1d!
0e!
0f!
0g!
$end
#50000
b1 !
0*
1V
15
1)
#100000
b11 !
b10 !
1M
1*
0V
1v
1N
05
0)
1c!
1C!
0x
1P
16
1(
0D!
0d!
0Q
1f!
#150000
b11 !
0*
1V
15
1)
#200000
b111 !
b101 !
b100 !
0M
1;
1*
0V
0v
0N
1B!
1W
0@!
1L
1<
0J
05
0)
0c!
0C!
1x
0P
1d!
0X
0=!
0=
0H
06
0(
1e!
0d!
1:!
1D
17
1'
#250000
b101 !
0*
1V
15
1)
#300000
b111 !
b110 !
1M
1*
0V
1v
1N
05
0)
1c!
1C!
0x
1P
16
1(
1d!
#350000
b111 !
0*
1V
15
1)
#400000
b1111 !
b1011 !
b1001 !
b1000 !
0M
0;
1:
1*
0V
0v
0N
0B!
0W
1@!
0L
0<
1J
1?!
1=!
1G
1H
05
0)
0c!
0C!
1x
0P
0d!
0=!
0H
1E!
0f!
1R
06
0(
0e!
1g!
1D!
1d!
1Q
0F!
0S
07
18
0'
1&
0E!
1f!
0R
1G!
1T
1F!
1S
0H!
0U
0G!
0T
1I!
11
1%
1H!
1U
0J!
0I!
1K!
01
0%
1J!
0L!
0K!
1M!
1L!
0N!
0M!
1O!
1N!
0P!
0O!
1Q!
1P!
0R!
0Q!
1S!
1R!
0T!
0S!
1U!
1T!
0V!
0U!
1W!
1V!
0X!
0W!
1Y!
1X!
0Z!
0Y!
1[!
1Z!
0\!
0[!
1]!
1\!
0^!
0]!
1_!
1^!
0`!
0_!
1a!
1`!
0b!
0a!
1e!
1c!
1b!
17
16
1'
1(
0e!
0c!
07
06
0'
0(
#450000
b1001 !
0*
1V
15
1)
#500000
b1011 !
b1010 !
1M
1*
0V
1v
1N
05
0)
1c!
1C!
0x
1P
16
1(
0D!
0d!
0Q
1E!
0f!
1R
0F!
0S
1G!
1T
0H!
0U
1I!
11
1%
0J!
1K!
0L!
1M!
0N!
1O!
0P!
1Q!
0R!
1S!
0T!
1U!
0V!
1W!
0X!
1Y!
0Z!
1[!
0\!
1]!
0^!
1_!
0`!
1a!
0b!
0g!
0c!
08
06
0&
0(
#550000
b1011 !
0*
1V
15
1)
#600000
b1111 !
b1101 !
b1100 !
0M
1;
1*
0V
0v
0N
1B!
1W
0@!
1L
1<
0J
05
0)
0C!
1x
0P
1d!
1=!
1H
0d!
1c!
1e!
16
17
1(
1'
0e!
07
0'
#650000
b1101 !
0*
1V
15
1)
#700000
b1111 !
b1110 !
1M
1*
0V
1v
1N
05
0)
1C!
0x
1P
1d!
0c!
06
0(
1e!
17
1'
#750000
b1111 !
0*
1V
15
1)
#800000
b11111 !
b10111 !
b10011 !
b10001 !
b10000 !
0M
0;
0:
19
1*
0V
0v
0N
0B!
0W
1@!
0L
0<
1J
0?!
0=!
0G
0H
1<!
1Y
0:!
1F
1>
0D
05
0)
0C!
1x
0P
0d!
1X
1=!
1=
1H
0E!
1f!
0R
0Z
08!
0@
0?
1D!
1d!
1Q
0Y
1:!
0>
1D
1[
06!
1A
1c!
0e!
1g!
0f!
1Z
18!
1@
1?
0\
04!
0B
16
07
18
1(
0'
1&
1e!
0[
16!
0A
1C
1]
02!
1K
1I
0F
1E
12
17
1$
1'
0g!
1\
14!
1B
0^
01!
0Q
08
0&
0]
12!
0K
0I
1F
0E
0C
1_
00!
1R
02
0$
1^
11!
1Q
0R
0`
0/!
0_
10!
1a
0.!
1`
1/!
0b
0-!
0a
1.!
1c
0,!
1b
1-!
0d
0+!
0c
1,!
1e
0*!
1d
1+!
0f
0)!
0e
1*!
1g
0(!
1f
1)!
0h
0'!
0g
1(!
1i
0&!
1h
1'!
0j
0%!
0i
1&!
1k
0$!
1j
1%!
0l
0#!
0k
1$!
1m
0"!
1l
1#!
0n
0!!
0m
1"!
1o
0~
1n
1!!
0p
0}
0o
1~
1q
0|
1p
1}
0r
0{
0q
1|
1s
0z
1r
1{
0t
0y
0s
1z
0u
1t
1y
1A!
1>!
0<!
1;!
19!
17!
15!
13!
1u
0D!
0d!
1f!
0A!
0>!
1<!
0;!
09!
07!
05!
03!
1E!
0f!
0e!
1g!
1D!
1d!
0E!
1f!
07
18
0'
1&
0g!
0f!
08
0&
1e!
1g!
17
18
1'
1&
0g!
08
0&
#850000
b10001 !
0*
1V
15
1)
#900000
b10011 !
b10010 !
1M
1*
0V
1v
1N
05
0)
1C!
0x
1P
0D!
0d!
0Q
0c!
1f!
06
0(
0e!
07
0'
1g!
18
1&
#950000
b10011 !
0*
1V
15
1)
#1000000
b10111 !
b10101 !
b10100 !
0M
1;
1*
0V
0v
0N
1B!
1W
0@!
1L
1<
0J
05
0)
0C!
1x
0P
1d!
0X
0=!
0=
0H
0d!
1Y
0:!
1>
0D
1c!
1e!
0Z
08!
0@
0?
16
17
1(
1'
0e!
1[
06!
1A
07
0'
0\
04!
0B
1]
02!
0L
0F
12
1$
0^
01!
1Q
1S
1_
00!
0T
0`
0/!
1U
1a
0.!
01
0%
0b
0-!
1c
0,!
0d
0+!
1e
0*!
0f
0)!
1g
0(!
0h
0'!
1i
0&!
0j
0%!
1k
0$!
0l
0#!
1m
0"!
0n
0!!
1o
0~
0p
0}
1q
0|
0r
0{
1s
0z
0t
0y
0u
0B!
0<!
1D!
1d!
1F!
0f!
0G!
1e!
1H!
17
1'
0g!
0I!
08
0&
1J!
0K!
1L!
0M!
1N!
0O!
1P!
0Q!
1R!
0S!
1T!
0U!
1V!
0W!
1X!
0Y!
1Z!
0[!
1\!
0]!
1^!
0_!
1`!
0a!
1b!
0e!
0c!
07
06
0'
0(
#1050000
b10101 !
0*
1V
15
1)
#1100000
b10111 !
b10110 !
1M
1*
0V
1w
1O
05
0)
1c!
1C!
0x
1P
16
1(
0D!
0d!
0Q
1f!
#1150000
b10111 !
0*
1V
15
1)
