alarmas/simulation/qsim/alarmas.msim.vcd
$comment
	File created using the following command:
		vcd file alarmas.msim.vcd -direction
$end
$date
	Sat Mar 29 14:16:30 2025
$end
$version
	ModelSim Version 10.1d
$end
$timescale
	1ps
$end
$scope module alarmas_vlg_vec_tst $end
$var reg 4 ! cantPer [3:0] $end
$var reg 6 " cuentaAscensor [5:0] $end
$var reg 1 # sensorEnergia $end
$var wire 1 $ abrirCerrar $end
$var wire 1 % abrirCerrarSon $end
$var wire 1 & anomaliaEn $end
$var wire 1 ' anomaliaEnSon $end
$var wire 1 ( luz $end
$var wire 1 ) masde10 $end
$var wire 1 * sampler $end
$scope module i1 $end
$var wire 1 + gnd $end
$var wire 1 , vcc $end
$var wire 1 - unknown $end
$var tri1 1 . devclrn $end
$var tri1 1 / devpor $end
$var tri1 1 0 devoe $end
$var wire 1 1 masde10~output_o $end
$var wire 1 2 abrirCerrar~output_o $end
$var wire 1 3 abrirCerrarSon~output_o $end
$var wire 1 4 anomaliaEn~output_o $end
$var wire 1 5 anomaliaEnSon~output_o $end
$var wire 1 6 luz~output_o $end
$var wire 1 7 cantPer[1]~input_o $end
$var wire 1 8 cantPer[2]~input_o $end
$var wire 1 9 cantPer[3]~input_o $end
$var wire 1 : cantPer[0]~input_o $end
$var wire 1 ; U1|AmayB~0_combout $end
$var wire 1 < cuentaAscensor[1]~input_o $end
$var wire 1 = cuentaAscensor[0]~input_o $end
$var wire 1 > cuentaAscensor[3]~input_o $end
$var wire 1 ? cuentaAscensor[2]~input_o $end
$var wire 1 @ cuentaAscensor[5]~input_o $end
$var wire 1 A cuentaAscensor[4]~input_o $end
$var wire 1 B U3|LessThan0~0_combout $end
$var wire 1 C U3|LessThan0~1_combout $end
$var wire 1 D U4|Equal0~0_combout $end
$var wire 1 E U3|Equal0~0_combout $end
$var wire 1 F U3|Equal0~1_combout $end
$var wire 1 G abrirCerrarSon~0_combout $end
$var wire 1 H sensorEnergia~input_o $end
$var wire 1 I luz~0_combout $end
$var wire 1 J luz~1_combout $end
$upscope $end
$upscope $end
$enddefinitions $end
#0
$dumpvars
b0 !
b1 "
0#
0$
0%
0&
0'
0(
0)
x*
0+
1,
x-
1.
1/
10
01
02
03
04
05
06
07
08
09
0:
0;
0<
1=
0>
0?
0@
0A
0B
0C
0D
0E
0F
0G
0H
0I
0J
$end
#15000
b11 "
b10 "
0=
1<
0*
1E
#30000
b11 "
1=
1*
0E
#45000
b111 "
b101 "
b100 "
0=
0<
1?
0*
#60000
b101 "
1=
1*
#75000
b111 "
b110 "
0=
1<
0*
1E
1D
#90000
b111 "
1=
1*
0E
0D
#100000
1#
0*
1H
15
14
1'
1&
#105000
b1111 "
b1011 "
b1001 "
b1000 "
0=
0<
0?
1>
1*
#120000
b1001 "
1=
0*
#135000
b1011 "
b1010 "
0=
1<
1*
1E
1F
1G
13
1%
#150000
b1011 "
1=
0*
0E
1C
0F
12
1$
1J
0G
16
03
1(
0%
#165000
b1111 "
b1101 "
b1100 "
0=
0<
1?
1*
1B
0C
02
0$
1C
0J
12
06
1$
0(
1J
16
1(
#180000
b1101 "
1=
0*
#195000
b1111 "
b1110 "
0=
1<
1*
1E
#200000
0#
0*
0H
05
04
0'
0&
#210000
b1111 "
1=
1*
0E
#225000
b11111 "
b10111 "
b10011 "
b10001 "
b10000 "
0=
0<
0?
0>
1A
0*
#240000
b10001 "
1=
1*
#255000
b10011 "
b10010 "
0=
1<
0*
#270000
b10011 "
1=
1*
#285000
b10111 "
b10101 "
b10100 "
0=
0<
1?
0*
#300000
1#
b10101 "
1=
1*
1H
15
14
1'
1&
#315000
b10111 "
b10110 "
0=
1<
0*
1D
#330000
b10111 "
1=
1*
0D
#345000
b11111 "
b11011 "
b11001 "
b11000 "
0=
0<
0?
1>
0*
#360000
b11001 "
1=
1*
#375000
b11011 "
b11010 "
0=
1<
0*
#390000
b11011 "
1=
1*
#400000
0#
0*
0H
05
04
0'
0&
#405000
b11111 "
b11101 "
b11100 "
0=
0<
1?
1*
#420000
b11101 "
1=
0*
#435000
b11111 "
b11110 "
0=
1<
1*
#450000
b11111 "
1=
0*
#465000
b111111 "
b101111 "
b100111 "
b100011 "
b100001 "
b100000 "
0=
0<
0?
0>
0A
1@
1*
#480000
b100001 "
1=
0*
#495000
b100011 "
b100010 "
0=
1<
1*
#500000
1#
0*
1H
15
14
1'
1&
#510000
b100011 "
1=
1*
#525000
b100111 "
b100101 "
b100100 "
0=
0<
1?
0*
#540000
b100101 "
1=
1*
#555000
b100111 "
b100110 "
0=
1<
0*
1D
#570000
b100111 "
1=
1*
0D
#585000
b101111 "
b101011 "
b101001 "
b101000 "
0=
0<
0?
1>
0*
#600000
0#
b101001 "
1=
1*
0H
05
04
0'
0&
#615000
b101011 "
b101010 "
0=
1<
0*
#630000
b101011 "
1=
1*
#645000
b101111 "
b101101 "
b101100 "
0=
0<
1?
0*
#660000
b101101 "
1=
1*
#675000
b101111 "
b101110 "
0=
1<
0*
#690000
b101111 "
1=
1*
#700000
1#
0*
1H
15
14
1'
1&
#705000
b111111 "
b110111 "
b110011 "
b110001 "
b110000 "
0=
0<
0?
0>
1A
1*
#720000
b110001 "
1=
0*
#735000
b110011 "
b110010 "
0=
1<
1*
#750000
b110011 "
1=
0*
#765000
b110111 "
b110101 "
b110100 "
0=
0<
1?
1*
#780000
b110101 "
1=
0*
#795000
b110111 "
b110110 "
0=
1<
1*
1D
1G
13
1%
#800000
0#
0*
0H
05
04
0'
0&
#810000
b110111 "
1=
1*
0D
0G
03
0%
#825000
b111111 "
b111011 "
b111001 "
b111000 "
0=
0<
0?
1>
0*
#840000
b111001 "
1=
1*
#855000
b111011 "
b111010 "
0=
1<
0*
#870000
b111011 "
1=
1*
#885000
b111111 "
b111101 "
b111100 "
0=
0<
1?
0*
#900000
1#
b111101 "
1=
1*
1H
15
14
1'
1&
#915000
b111111 "
b111110 "
0=
1<
0*
#930000
b111111 "
1=
1*
#945000
b11111 "
b1111 "
b111 "
b11 "
b1 "
b0 "
0=
0<
0?
0>
0A
0@
0*
0B
0C
02
0$
0J
06
0(
#960000
b1 "
1=
1*
#975000
b11 "
b10 "
0=
1<
0*
1E
#990000
b11 "
1=
1*
0E
