contadorSeg/simulation/qsim/contadorSeg.msim.vcd
$comment
	File created using the following command:
		vcd file contadorSeg.msim.vcd -direction
$end
$date
	Thu Mar 20 00:32:07 2025
$end
$version
	ModelSim Version 10.1d
$end
$timescale
	1ps
$end
$scope module contadorSeg_vlg_vec_tst $end
$var reg 1 ! clk $end
$var reg 1 " enable $end
$var reg 1 # reset $end
$var wire 1 $ abrir_puerta $end
$var wire 1 % cerrar_puerta $end
$var wire 1 & cuenta [5] $end
$var wire 1 ' cuenta [4] $end
$var wire 1 ( cuenta [3] $end
$var wire 1 ) cuenta [2] $end
$var wire 1 * cuenta [1] $end
$var wire 1 + cuenta [0] $end
$var wire 1 , sampler $end
$scope module i1 $end
$var wire 1 - gnd $end
$var wire 1 . vcc $end
$var wire 1 / unknown $end
$var tri1 1 0 devclrn $end
$var tri1 1 1 devpor $end
$var tri1 1 2 devoe $end
$var wire 1 3 cuenta[0]~output_o $end
$var wire 1 4 cuenta[1]~output_o $end
$var wire 1 5 cuenta[2]~output_o $end
$var wire 1 6 cuenta[3]~output_o $end
$var wire 1 7 cuenta[4]~output_o $end
$var wire 1 8 cuenta[5]~output_o $end
$var wire 1 9 abrir_puerta~output_o $end
$var wire 1 : cerrar_puerta~output_o $end
$var wire 1 ; clk~input_o $end
$var wire 1 < clk~inputclkctrl_outclk $end
$var wire 1 = enable~input_o $end
$var wire 1 > contador[4]~4_combout $end
$var wire 1 ? Add0~1 $end
$var wire 1 @ Add0~2_combout $end
$var wire 1 A reset~input_o $end
$var wire 1 B reset~inputclkctrl_outclk $end
$var wire 1 C Add0~9 $end
$var wire 1 D Add0~10_combout $end
$var wire 1 E contador[5]~6_combout $end
$var wire 1 F Equal0~0_combout $end
$var wire 1 G contador[0]~0_combout $end
$var wire 1 H Equal1~0_combout $end
$var wire 1 I Equal1~1_combout $end
$var wire 1 J contador[0]~1_combout $end
$var wire 1 K Add0~3 $end
$var wire 1 L Add0~4_combout $end
$var wire 1 M Add0~5 $end
$var wire 1 N Add0~6_combout $end
$var wire 1 O contador[3]~3_combout $end
$var wire 1 P Add0~7 $end
$var wire 1 Q Add0~8_combout $end
$var wire 1 R contador[4]~5_combout $end
$var wire 1 S Equal2~0_combout $end
$var wire 1 T Add0~0_combout $end
$var wire 1 U contador[0]~2_combout $end
$var wire 1 V abrir_puerta~1_combout $end
$var wire 1 W abrir_puerta~0_combout $end
$var wire 1 X abrir_puerta~2_combout $end
$var wire 1 Y abrir_puerta~reg0_q $end
$var wire 1 Z cerrar_puerta~0_combout $end
$var wire 1 [ cerrar_puerta~reg0_q $end
$var wire 1 \ contador [5] $end
$var wire 1 ] contador [4] $end
$var wire 1 ^ contador [3] $end
$var wire 1 _ contador [2] $end
$var wire 1 ` contador [1] $end
$var wire 1 a contador [0] $end
$upscope $end
$upscope $end
$enddefinitions $end
#0
$dumpvars
0!
1"
0#
0$
0%
0+
0*
0)
0(
0'
0&
x,
0-
1.
x/
10
11
12
03
04
05
06
07
08
09
0:
0;
0<
1=
0>
0?
0@
0A
0B
0C
0D
0E
1F
1G
0H
0I
1J
1K
0L
0M
0N
0O
1P
0Q
0R
0S
1T
1U
0V
0W
0X
0Y
0Z
0[
0a
0`
0_
0^
0]
0\
$end
#10000
1!
1;
1<
0,
1a
0F
1?
0T
13
1+
1@
0U
#20000
0!
0;
0<
1,
#30000
1!
1;
1<
0,
0a
1`
1F
0?
1T
0K
0@
03
14
0+
1*
1K
1@
1U
1L
0L
#40000
0!
0;
0<
1,
#50000
1!
1;
1<
0,
1a
0F
1?
0T
13
1+
0K
0@
0U
1L
#60000
0!
0;
0<
1,
#70000
1!
1;
1<
0,
0a
1_
0`
0?
1T
1M
0L
1K
1@
03
15
04
0+
1)
0*
0@
1U
1N
0M
1L
1O
0N
0O
#80000
0!
0;
0<
1,
#90000
1!
1;
1<
0,
1a
1?
0T
13
1+
1@
0U
#100000
0!
0;
0<
1,
#110000
1!
1;
1<
0,
0a
1`
0?
1T
0K
0@
03
14
0+
1*
1K
1@
1U
1M
0L
0M
1L
1N
0N
1O
0O
#120000
0!
0;
0<
1,
#130000
1!
1;
1<
0,
1a
1?
0T
13
1+
0K
0@
0U
1M
0L
1N
1O
#140000
0!
0;
0<
1,
#150000
1!
1;
1<
0,
0a
1^
0_
0`
1F
0?
1T
0P
0N
0M
1L
1K
1@
03
16
05
04
0+
1(
0)
0*
0@
1U
1Q
0O
1P
1N
0L
1R
0Q
1O
0R
#160000
0!
0;
0<
1,
#170000
1!
1;
1<
0,
1a
0F
1?
0T
13
1+
1@
0U
#180000
0!
0;
0<
1,
#190000
1!
1;
1<
0,
0a
1`
1F
0?
1T
0K
0@
03
14
0+
1*
1V
0G
1K
1@
1U
1L
1X
0J
0L
0U
#200000
0!
0;
0<
1,
#210000
1!
1;
1<
0,
1Y
1W
19
1$
#220000
0!
0;
0<
1,
#230000
1!
1;
1<
0,
#240000
0!
0;
0<
1,
#250000
1!
1;
1<
0,
#260000
0!
0;
0<
1,
#270000
1!
1;
1<
0,
#280000
0!
0;
0<
1,
#290000
1!
1;
1<
0,
#300000
0!
0;
0<
1,
#310000
1!
1;
1<
0,
#320000
0!
0;
0<
1,
#330000
1!
1;
1<
0,
#340000
0!
0;
0<
1,
#350000
1!
1;
1<
0,
#360000
0!
0;
0<
1,
#370000
1!
1;
1<
0,
#380000
0!
0;
0<
1,
#390000
1!
1;
1<
0,
#400000
0!
0;
0<
1,
#410000
1!
1;
1<
0,
#420000
0!
0;
0<
1,
#430000
1!
1;
1<
0,
#440000
0!
0;
0<
1,
#450000
1!
1;
1<
0,
#460000
0!
0;
0<
1,
#470000
1!
1;
1<
0,
#480000
0!
0;
0<
1,
#490000
1!
1;
1<
0,
#500000
0!
0;
0<
1,
#510000
1!
1;
1<
0,
#520000
0!
0;
0<
1,
#530000
1!
1;
1<
0,
#540000
0!
0;
0<
1,
#550000
1!
1;
1<
0,
#560000
0!
0;
0<
1,
#570000
1!
1;
1<
0,
#580000
0!
0;
0<
1,
#590000
1!
1;
1<
0,
#600000
0!
0;
0<
1,
#610000
1!
1;
1<
0,
#620000
0!
0;
0<
1,
#630000
1!
1;
1<
0,
#640000
0!
0;
0<
1,
#650000
1!
1;
1<
0,
#660000
0!
0;
0<
1,
#670000
1!
1;
1<
0,
#680000
0!
0;
0<
1,
#690000
1!
1;
1<
0,
#700000
0!
0;
0<
1,
#710000
1!
1;
1<
0,
#720000
0!
0;
0<
1,
#730000
1!
1;
1<
0,
#740000
0!
0;
0<
1,
#750000
1!
1;
1<
0,
#760000
0!
0;
0<
1,
#770000
1!
1;
1<
0,
#780000
0!
0;
0<
1,
#790000
1!
1;
1<
0,
#800000
0!
0;
0<
1,
#810000
1!
1;
1<
0,
#820000
0!
0;
0<
1,
#830000
1!
1;
1<
0,
#840000
0!
0;
0<
1,
#850000
1!
1;
1<
0,
#860000
0!
0;
0<
1,
#870000
1!
1;
1<
0,
#880000
0!
0;
0<
1,
#890000
1!
1;
1<
0,
#900000
0!
0;
0<
1,
#910000
1!
1;
1<
0,
#920000
0!
0;
0<
1,
#930000
1!
1;
1<
0,
#940000
0!
0;
0<
1,
#950000
1!
1;
1<
0,
#960000
0!
0;
0<
1,
#970000
1!
1;
1<
0,
#980000
0!
0;
0<
1,
#990000
1!
1;
1<
0,
