actualizarPiso/simulation/qsim/actualizarPiso.msim.vcd
$comment
	File created using the following command:
		vcd file actualizarPiso.msim.vcd -direction
$end
$date
	Mon Mar 31 00:35:58 2025
$end
$version
	ModelSim Version 10.1d
$end
$timescale
	1ps
$end
$scope module actualizarPiso_vlg_vec_tst $end
$var reg 1 ! bajar $end
$var reg 1 " clk $end
$var reg 1 # quieto $end
$var reg 1 $ subir $end
$var wire 1 % pisoActual [2] $end
$var wire 1 & pisoActual [1] $end
$var wire 1 ' pisoActual [0] $end
$var wire 1 ( sampler $end
$scope module i1 $end
$var wire 1 ) gnd $end
$var wire 1 * vcc $end
$var wire 1 + unknown $end
$var tri1 1 , devclrn $end
$var tri1 1 - devpor $end
$var tri1 1 . devoe $end
$var wire 1 / pisoActual[0]~output_o $end
$var wire 1 0 pisoActual[1]~output_o $end
$var wire 1 1 pisoActual[2]~output_o $end
$var wire 1 2 clk~input_o $end
$var wire 1 3 clk~inputclkctrl_outclk $end
$var wire 1 4 subir~input_o $end
$var wire 1 5 bajar~input_o $end
$var wire 1 6 quieto~input_o $end
$var wire 1 7 piso[0]~0_combout $end
$var wire 1 8 Add0~0_combout $end
$var wire 1 9 piso[0]~1_combout $end
$var wire 1 : Add0~1_combout $end
$var wire 1 ; piso [2] $end
$var wire 1 < piso [1] $end
$var wire 1 = piso [0] $end
$upscope $end
$upscope $end
$enddefinitions $end
#0
$dumpvars
0!
0"
1#
1$
1'
0&
0%
x(
0)
1*
x+
1,
1-
1.
1/
00
01
02
03
14
05
16
07
18
09
0:
0=
0<
0;
$end
#70000
1"
12
13
0(
#100000
0"
02
03
1(
#170000
1"
12
13
0(
#200000
0"
02
03
1(
#270000
1"
12
13
0(
#300000
0"
02
03
1(
#370000
1"
12
13
0(
#400000
0$
0"
04
02
03
1(
08
#410000
1!
15
0(
#470000
1"
12
13
1(
#500000
0"
02
03
0(
#570000
1"
12
13
1(
#600000
0"
02
03
0(
#670000
1"
12
13
1(
#700000
0"
02
03
0(
#770000
1"
12
13
1(
#800000
1$
0"
14
02
03
0(
18
#820000
0!
05
1(
#870000
1"
12
13
0(
#900000
0"
02
03
1(
#970000
1"
12
13
0(
