capturarLlego/simulation/qsim/capturarLlego.msim.vcd
$comment
	File created using the following command:
		vcd file capturarLlego.msim.vcd -direction
$end
$date
	Mon Mar 31 05:37:37 2025
$end
$version
	ModelSim Version 10.1d
$end
$timescale
	1ps
$end
$scope module capturarLlego_vlg_vec_tst $end
$var reg 1 ! clear $end
$var reg 1 " clk $end
$var reg 1 # llego $end
$var wire 1 $ llego_capturado $end
$var wire 1 % sampler $end
$scope module i1 $end
$var wire 1 & gnd $end
$var wire 1 ' vcc $end
$var wire 1 ( unknown $end
$var tri1 1 ) devclrn $end
$var tri1 1 * devpor $end
$var tri1 1 + devoe $end
$var wire 1 , llego_capturado~output_o $end
$var wire 1 - clk~input_o $end
$var wire 1 . clk~inputclkctrl_outclk $end
$var wire 1 / llego~input_o $end
$var wire 1 0 clear~input_o $end
$var wire 1 1 llego_prev~feeder_combout $end
$var wire 1 2 llego_prev~q $end
$var wire 1 3 capturado~0_combout $end
$var wire 1 4 capturado~q $end
$upscope $end
$upscope $end
$enddefinitions $end
#0
$dumpvars
0!
0"
1#
0$
x%
0&
1'
x(
1)
1*
1+
0,
0-
0.
1/
00
11
02
13
04
$end
#10000
1"
1-
1.
0%
12
14
1,
1$
#20000
0"
0-
0.
1%
#30000
1"
1-
1.
0%
#35000
0#
0/
1%
01
#40000
0"
0-
0.
0%
#50000
1"
1-
1.
1%
02
#60000
0"
0-
0.
0%
#70000
1"
1-
1.
1%
#80000
0"
0-
0.
0%
#90000
1"
1-
1.
1%
#100000
0"
0-
0.
0%
#110000
1"
1-
1.
1%
#120000
0"
0-
0.
0%
#130000
1"
1-
1.
1%
#140000
0"
0-
0.
0%
#150000
1"
1-
1.
1%
#160000
0"
0-
0.
0%
#170000
1"
1-
1.
1%
#180000
0"
0-
0.
0%
#190000
1"
1-
1.
1%
#200000
0"
0-
0.
0%
#210000
1"
1-
1.
1%
#220000
0"
0-
0.
0%
#230000
1"
1-
1.
1%
#240000
0"
0-
0.
0%
#250000
1"
1-
1.
1%
#260000
0"
0-
0.
0%
#270000
1"
1-
1.
1%
#280000
0"
0-
0.
0%
#290000
1"
1-
1.
1%
#300000
0"
0-
0.
0%
#310000
1"
1-
1.
1%
#320000
0"
0-
0.
0%
#330000
1"
1-
1.
1%
#340000
0"
0-
0.
0%
#350000
1"
1-
1.
1%
#360000
0"
0-
0.
0%
#370000
1"
1-
1.
1%
#380000
0"
0-
0.
0%
#390000
1"
1-
1.
1%
#400000
0"
0-
0.
0%
#410000
1"
1-
1.
1%
#420000
0"
0-
0.
0%
#430000
1"
1-
1.
1%
#440000
0"
0-
0.
0%
#450000
1"
1-
1.
1%
#460000
0"
0-
0.
0%
#470000
1"
1-
1.
1%
#480000
0"
0-
0.
0%
#490000
1"
1-
1.
1%
#500000
0"
0-
0.
0%
#510000
1"
1-
1.
1%
#520000
0"
0-
0.
0%
#530000
1"
1-
1.
1%
#540000
0"
0-
0.
0%
#550000
1"
1-
1.
1%
#560000
0"
0-
0.
0%
#570000
1"
1-
1.
1%
#580000
0"
0-
0.
0%
#590000
1"
1-
1.
1%
#600000
0"
0-
0.
0%
#610000
1"
1-
1.
1%
#620000
0"
0-
0.
0%
#630000
1"
1-
1.
1%
#640000
0"
0-
0.
0%
#650000
1"
1-
1.
1%
#660000
0"
0-
0.
0%
#670000
1"
1-
1.
1%
#680000
0"
0-
0.
0%
#690000
1"
1-
1.
1%
#700000
1#
0"
1/
0-
0.
0%
11
#710000
1"
1-
1.
1%
12
#720000
0"
0-
0.
0%
#730000
1"
1-
1.
1%
#735000
0#
0/
0%
01
#740000
0"
0-
0.
1%
#750000
1"
1-
1.
0%
02
#760000
0"
0-
0.
1%
#770000
1"
1-
1.
0%
#780000
0"
0-
0.
1%
#790000
1"
1-
1.
0%
#800000
0"
0-
0.
1%
#810000
1"
1-
1.
0%
#820000
0"
0-
0.
1%
#830000
1"
1-
1.
0%
#840000
0"
0-
0.
1%
#850000
1"
1-
1.
0%
#860000
0"
0-
0.
1%
#870000
1"
1-
1.
0%
#880000
0"
0-
0.
1%
#890000
1"
1-
1.
0%
#900000
0"
0-
0.
1%
#910000
1"
1-
1.
0%
#920000
0"
0-
0.
1%
#930000
1"
1-
1.
0%
#940000
0"
0-
0.
1%
#950000
1"
1-
1.
0%
#960000
0"
0-
0.
1%
#970000
1"
1-
1.
0%
#980000
0"
0-
0.
1%
#990000
1"
1-
1.
0%
