restador/simulation/qsim/restador.msim.vcd
$comment
	File created using the following command:
		vcd file restador.msim.vcd -direction
$end
$date
	Thu Feb 27 16:23:23 2025
$end
$version
	ModelSim Version 10.1d
$end
$timescale
	1ps
$end
$scope module restador_vlg_vec_tst $end
$var reg 4 ! x [3:0] $end
$var reg 4 " y [3:0] $end
$var wire 1 # mag [3] $end
$var wire 1 $ mag [2] $end
$var wire 1 % mag [1] $end
$var wire 1 & mag [0] $end
$var wire 1 ' sig $end
$var wire 1 ( sampler $end
$scope module i1 $end
$var wire 1 ) gnd $end
$var wire 1 * vcc $end
$var wire 1 + unknown $end
$var tri1 1 , devclrn $end
$var tri1 1 - devpor $end
$var tri1 1 . devoe $end
$var wire 1 / sig~output_o $end
$var wire 1 0 mag[0]~output_o $end
$var wire 1 1 mag[1]~output_o $end
$var wire 1 2 mag[2]~output_o $end
$var wire 1 3 mag[3]~output_o $end
$var wire 1 4 x[3]~input_o $end
$var wire 1 5 y[3]~input_o $end
$var wire 1 6 y[2]~input_o $end
$var wire 1 7 x[2]~input_o $end
$var wire 1 8 x[1]~input_o $end
$var wire 1 9 y[1]~input_o $end
$var wire 1 : y[0]~input_o $end
$var wire 1 ; x[0]~input_o $end
$var wire 1 < D1[0]~1 $end
$var wire 1 = D1[1]~3 $end
$var wire 1 > D1[2]~5 $end
$var wire 1 ? D1[3]~7 $end
$var wire 1 @ Add0~0_combout $end
$var wire 1 A D2[0]~0_combout $end
$var wire 1 B D1[0]~0_combout $end
$var wire 1 C Add1~0_combout $end
$var wire 1 D D1[1]~2_combout $end
$var wire 1 E D2[0]~1 $end
$var wire 1 F D2[1]~2_combout $end
$var wire 1 G Add1~1_combout $end
$var wire 1 H D1[2]~4_combout $end
$var wire 1 I D2[1]~3 $end
$var wire 1 J D2[2]~4_combout $end
$var wire 1 K Add1~2_combout $end
$var wire 1 L D2[2]~5 $end
$var wire 1 M D2[3]~6_combout $end
$var wire 1 N D1[3]~6_combout $end
$var wire 1 O Add1~3_combout $end
$upscope $end
$upscope $end
$enddefinitions $end
#0
$dumpvars
b0 !
b11 "
1&
1%
0$
0#
1'
x(
0)
1*
x+
1,
1-
1.
1/
10
11
02
03
04
05
06
07
08
19
1:
0;
0<
1=
0>
1?
0@
1A
1B
1C
0D
1E
1F
1G
1H
0I
0J
0K
1L
0M
1N
0O
$end
#100000
b1 !
1;
0(
0A
1<
0B
1D
0C
00
0&
#200000
b11 !
b10 !
0;
18
1(
1A
0<
1B
0F
0=
0D
1=
1D
1>
0H
1C
0G
0>
1H
0?
0N
10
01
1&
0%
1?
1N
1@
0@
0/
0'
1O
1K
1G
1/
13
12
11
1'
1#
1$
1%
0O
0K
0G
03
02
01
0#
0$
0%
#300000
b11 !
1;
0(
0A
1<
0B
0=
0D
0C
1>
0H
00
0&
0?
0N
1@
0/
0'
#400000
b111 !
b111 "
b101 !
b100 !
16
0;
08
17
1(
1A
0<
1B
1F
1=
1D
0D
0>
1H
1C
1G
1?
1N
10
11
1&
1%
0G
1K
0@
01
12
0%
1$
1O
1/
13
1'
1#
0O
0K
1G
03
02
11
0#
0$
1%
#500000
b101 !
1;
0(
0A
1<
0B
1D
0C
00
0&
#600000
b111 !
b110 !
0;
18
1(
1A
0<
1B
0F
0=
0D
1=
1D
1>
0H
1C
0G
0>
1H
0?
0N
10
01
1&
0%
1?
1N
1@
0@
0/
0'
1O
1K
1G
1/
13
12
11
1'
1#
1$
1%
0O
0K
0G
03
02
01
0#
0$
0%
#700000
b111 !
1;
0(
0A
1<
0B
0=
0D
0C
1>
0H
00
0&
0?
0N
1@
0/
0'
#800000
b1111 !
b1111 "
b1011 !
b1011 "
b1001 !
b1000 !
06
15
0;
08
07
14
1(
1A
0<
1B
1F
1=
1D
0D
0>
1H
1C
1G
1?
1N
10
11
1&
1%
0G
1K
0@
01
12
0%
1$
1O
1/
13
1'
1#
0O
0K
1G
03
02
11
0#
0$
1%
#900000
b1001 !
1;
0(
0A
1<
0B
1D
0C
00
0&
#1000000
b1011 !
b1010 !
0;
18
1(
1A
0<
1B
0F
0=
0D
1=
1D
1>
0H
1C
0G
0>
1H
0?
0N
10
01
1&
0%
1?
1N
1@
0@
0/
0'
1O
1K
1G
1/
13
12
11
1'
1#
1$
1%
0O
0K
0G
03
02
01
0#
0$
0%
#1100000
b1011 !
1;
0(
0A
1<
0B
0=
0D
0C
1>
0H
00
0&
0?
0N
1@
0/
0'
#1200000
b1111 !
b1111 "
b1101 !
b1100 !
16
0;
08
17
1(
1A
0<
1B
1F
1=
1D
0D
0>
1H
1C
1G
1?
1N
10
11
1&
1%
0G
1K
0@
01
12
0%
1$
1O
1/
13
1'
1#
0O
0K
1G
03
02
11
0#
0$
1%
#1300000
b1101 !
1;
0(
0A
1<
0B
1D
0C
00
0&
#1400000
b1111 !
b1110 !
0;
18
1(
1A
0<
1B
0F
0=
0D
1=
1D
1>
0H
1C
0G
0>
1H
0?
0N
10
01
1&
0%
1?
1N
1@
0@
0/
0'
1O
1K
1G
1/
13
12
11
1'
1#
1$
1%
0O
0K
0G
03
02
01
0#
0$
0%
#1500000
b1111 !
1;
0(
0A
1<
0B
0=
0D
0C
1>
0H
00
0&
0?
0N
1@
0/
0'
