div_frec/simulation/qsim/div_frec.msim.vcd
$comment
	File created using the following command:
		vcd file div_frec.msim.vcd -direction
$end
$date
	Tue Mar 04 15:33:52 2025
$end
$version
	ModelSim Version 10.1d
$end
$timescale
	1ps
$end
$scope module div_frec_vlg_vec_tst $end
$var reg 1 ! clk $end
$var wire 1 " out1 $end
$var wire 1 # out2 $end
$var wire 1 $ sampler $end
$scope module i1 $end
$var wire 1 % gnd $end
$var wire 1 & vcc $end
$var wire 1 ' unknown $end
$var tri1 1 ( devclrn $end
$var tri1 1 ) devpor $end
$var tri1 1 * devoe $end
$var wire 1 + out1~output_o $end
$var wire 1 , out2~output_o $end
$var wire 1 - clk~input_o $end
$var wire 1 . clk~inputclkctrl_outclk $end
$var wire 1 / count1~2_combout $end
$var wire 1 0 count1~1_combout $end
$var wire 1 1 count1[2]~0_combout $end
$var wire 1 2 out1~0_combout $end
$var wire 1 3 out1~reg0_q $end
$var wire 1 4 count1 [2] $end
$var wire 1 5 count1 [1] $end
$var wire 1 6 count1 [0] $end
$upscope $end
$upscope $end
$enddefinitions $end
#0
$dumpvars
0!
0"
0#
x$
0%
1&
x'
1(
1)
1*
0+
0,
0-
0.
0/
10
01
02
03
06
05
04
$end
#20000
1!
1-
1.
0$
16
00
1/
#40000
0!
0-
0.
1$
#60000
1!
1-
1.
0$
06
15
12
0/
#80000
0!
0-
0.
1$
#100000
1!
1-
1.
0$
05
13
10
1+
1"
#120000
0!
0-
0.
1$
#140000
1!
1-
1.
0$
16
00
1/
#160000
0!
0-
0.
1$
#180000
1!
1-
1.
0$
06
15
02
0/
#200000
0!
0-
0.
1$
#220000
1!
1-
1.
0$
05
03
10
0+
0"
#240000
0!
0-
0.
1$
#260000
1!
1-
1.
0$
16
00
1/
#280000
0!
0-
0.
1$
#300000
1!
1-
1.
0$
06
15
12
0/
#320000
0!
0-
0.
1$
#340000
1!
1-
1.
0$
05
13
10
1+
1"
#360000
0!
0-
0.
1$
#380000
1!
1-
1.
0$
16
00
1/
#400000
0!
0-
0.
1$
#420000
1!
1-
1.
0$
06
15
02
0/
#440000
0!
0-
0.
1$
#460000
1!
1-
1.
0$
05
03
10
0+
0"
#480000
0!
0-
0.
1$
#500000
1!
1-
1.
0$
16
00
1/
#520000
0!
0-
0.
1$
#540000
1!
1-
1.
0$
06
15
12
0/
#560000
0!
0-
0.
1$
#580000
1!
1-
1.
0$
05
13
10
1+
1"
#600000
0!
0-
0.
1$
#620000
1!
1-
1.
0$
16
00
1/
#640000
0!
0-
0.
1$
#660000
1!
1-
1.
0$
06
15
02
0/
#680000
0!
0-
0.
1$
#700000
1!
1-
1.
0$
05
03
10
0+
0"
#720000
0!
0-
0.
1$
#740000
1!
1-
1.
0$
16
00
1/
#760000
0!
0-
0.
1$
#780000
1!
1-
1.
0$
06
15
12
0/
#800000
0!
0-
0.
1$
#820000
1!
1-
1.
0$
05
13
10
1+
1"
#840000
0!
0-
0.
1$
#860000
1!
1-
1.
0$
16
00
1/
#880000
0!
0-
0.
1$
#900000
1!
1-
1.
0$
06
15
02
0/
#920000
0!
0-
0.
1$
#940000
1!
1-
1.
0$
05
03
10
0+
0"
#960000
0!
0-
0.
1$
#980000
1!
1-
1.
0$
16
00
1/
