controlContadores/simulation/qsim/controlContadores.msim.vcd
$comment
	File created using the following command:
		vcd file controlContadores.msim.vcd -direction
$end
$date
	Mon Mar 31 08:47:24 2025
$end
$version
	ModelSim Version 10.1d
$end
$timescale
	1ps
$end
$scope module controlContadores_vlg_vec_tst $end
$var reg 1 ! anomalia $end
$var reg 1 " clk $end
$var reg 1 # llego $end
$var reg 1 $ llegoa10 $end
$var reg 1 % llegoa45 $end
$var reg 1 & sobreCarga $end
$var wire 1 ' clear $end
$var wire 1 ( reset1 $end
$var wire 1 ) reset2 $end
$var wire 1 * sampler $end
$scope module i1 $end
$var wire 1 + gnd $end
$var wire 1 , vcc $end
$var wire 1 - unknown $end
$var tri1 1 . devclrn $end
$var tri1 1 / devpor $end
$var tri1 1 0 devoe $end
$var wire 1 1 reset1~output_o $end
$var wire 1 2 reset2~output_o $end
$var wire 1 3 clear~output_o $end
$var wire 1 4 clk~input_o $end
$var wire 1 5 clk~inputclkctrl_outclk $end
$var wire 1 6 anomalia~input_o $end
$var wire 1 7 sobreCarga~input_o $end
$var wire 1 8 caso[1]~0_combout $end
$var wire 1 9 llego~input_o $end
$var wire 1 : clear_reg~0_combout $end
$var wire 1 ; llegoa10~input_o $end
$var wire 1 < llegoa45~input_o $end
$var wire 1 = caso[0]~1_combout $end
$var wire 1 > caso[1]~4_combout $end
$var wire 1 ? caso[1]~5_combout $end
$var wire 1 @ caso[0]~2_combout $end
$var wire 1 A caso[0]~3_combout $end
$var wire 1 B Equal0~0_combout $end
$var wire 1 C Equal1~0_combout $end
$var wire 1 D clear_reg~1_combout $end
$var wire 1 E clear_reg~q $end
$var wire 1 F caso [1] $end
$var wire 1 G caso [0] $end
$upscope $end
$upscope $end
$enddefinitions $end
#0
$dumpvars
0!
0"
0#
0$
0%
0&
0'
1(
1)
x*
0+
1,
x-
1.
1/
10
11
12
03
04
05
06
07
18
09
0:
0;
0<
0=
0>
0?
0@
0A
0B
0C
0D
0E
0G
0F
$end
#10000
1"
14
15
0*
#20000
0"
04
05
1*
#30000
1"
14
15
0*
#40000
0"
04
05
1*
#50000
1"
14
15
0*
#60000
0"
04
05
1*
#70000
1"
14
15
0*
#80000
0"
04
05
1*
#90000
1"
14
15
0*
#100000
0"
04
05
1*
#110000
1"
14
15
0*
#120000
0"
04
05
1*
#130000
1"
14
15
0*
#140000
0"
04
05
1*
#150000
1#
1$
1%
1"
19
1;
1<
14
15
0*
1:
1A
#160000
0"
04
05
1*
#170000
1"
14
15
0*
1G
1B
1@
1>
0A
1?
01
0(
#180000
0"
04
05
1*
#190000
1"
14
15
0*
0G
1F
1C
0B
0>
1D
0?
02
11
0)
1(
#200000
0"
04
05
1*
#210000
1"
14
15
0*
0F
1E
0C
0@
13
1'
0D
1A
12
1)
#220000
0"
04
05
1*
#230000
1"
14
15
0*
1G
0E
1B
1@
1>
03
0'
0A
1?
01
0(
#240000
0"
04
05
1*
#250000
1"
14
15
0*
0G
1F
1C
0B
0>
1D
0?
02
11
0)
1(
#260000
0"
04
05
1*
#270000
1"
14
15
0*
0F
1E
0C
0@
13
1'
0D
1A
12
1)
#280000
0"
04
05
1*
#290000
1"
14
15
0*
1G
0E
1B
1@
1>
03
0'
0A
1?
01
0(
#300000
0#
0$
0%
0"
09
0;
0<
04
05
1*
0@
0>
0:
1=
1A
0?
#310000
1"
14
15
0*
#320000
0"
04
05
1*
#330000
1"
14
15
0*
#340000
0"
04
05
1*
#350000
1"
14
15
0*
#360000
0"
04
05
1*
#370000
1"
14
15
0*
#380000
0"
04
05
1*
#390000
1"
14
15
0*
#400000
0"
04
05
1*
#410000
1"
14
15
0*
#420000
0"
04
05
1*
#430000
1"
14
15
0*
#440000
0"
04
05
1*
#450000
1#
1$
1%
1"
19
1;
1<
14
15
0*
1>
1:
0=
1?
1@
0A
#460000
0"
04
05
1*
#470000
1"
14
15
0*
0G
1F
1C
0B
0>
1D
0?
02
11
0)
1(
#480000
0"
04
05
1*
#490000
1"
14
15
0*
0F
1E
0C
0@
13
1'
0D
1A
12
1)
#500000
0"
04
05
1*
#510000
1"
14
15
0*
1G
0E
1B
1@
1>
03
0'
0A
1?
01
0(
#520000
0"
04
05
1*
#530000
1"
14
15
0*
0G
1F
1C
0B
0>
1D
0?
02
11
0)
1(
#540000
0"
04
05
1*
#550000
1"
14
15
0*
0F
1E
0C
0@
13
1'
0D
1A
12
1)
#560000
0"
04
05
1*
#570000
1"
14
15
0*
1G
0E
1B
1@
1>
03
0'
0A
1?
01
0(
#580000
0"
04
05
1*
#590000
1"
14
15
0*
0G
1F
1C
0B
0>
1D
0?
02
11
0)
1(
#600000
0#
0$
0%
0"
09
0;
0<
04
05
1*
1>
0:
0D
1=
1?
#610000
1"
14
15
0*
#620000
0"
04
05
1*
#630000
1"
14
15
0*
#640000
0"
04
05
1*
#650000
1"
14
15
0*
#660000
0"
04
05
1*
#670000
1"
14
15
0*
#680000
0"
04
05
1*
#690000
1"
14
15
0*
#700000
0"
04
05
1*
#710000
1"
14
15
0*
#720000
0"
04
05
1*
#730000
1"
14
15
0*
#740000
0"
04
05
1*
#750000
1#
1$
1%
1"
19
1;
1<
14
15
0*
0>
1:
0=
0?
1D
#760000
0"
04
05
1*
#770000
1"
14
15
0*
0F
1E
0C
0@
13
1'
0D
1A
12
1)
#780000
0"
04
05
1*
#790000
1"
14
15
0*
1G
0E
1B
1@
1>
03
0'
0A
1?
01
0(
#800000
0"
04
05
1*
#810000
1"
14
15
0*
0G
1F
1C
0B
0>
1D
0?
02
11
0)
1(
#820000
0"
04
05
1*
#830000
1"
14
15
0*
0F
1E
0C
0@
13
1'
0D
1A
12
1)
#840000
0"
04
05
1*
#850000
1"
14
15
0*
1G
0E
1B
1@
1>
03
0'
0A
1?
01
0(
#860000
0"
04
05
1*
#870000
1"
14
15
0*
0G
1F
1C
0B
0>
1D
0?
02
11
0)
1(
#880000
0"
04
05
1*
#890000
1"
14
15
0*
0F
1E
0C
0@
13
1'
0D
1A
12
1)
#900000
0#
0$
0%
0"
09
0;
0<
04
05
1*
0:
0A
#910000
1"
14
15
0*
0E
03
0'
#920000
0"
04
05
1*
#930000
1"
14
15
0*
#940000
0"
04
05
1*
#950000
1"
14
15
0*
#960000
0"
04
05
1*
#970000
1"
14
15
0*
#980000
0"
04
05
1*
#990000
1"
14
15
0*
