controlPuerta/simulation/qsim/controlPuerta.msim.vcd
$comment
	File created using the following command:
		vcd file controlPuerta.msim.vcd -direction
$end
$date
	Mon Mar 31 09:34:52 2025
$end
$version
	ModelSim Version 10.1d
$end
$timescale
	1ps
$end
$scope module controlPuerta_vlg_vec_tst $end
$var reg 1 ! anomalia $end
$var reg 1 " clk $end
$var reg 1 # llego $end
$var reg 1 $ sobreCarga $end
$var wire 1 % cambiandoEstado $end
$var wire 1 & estadoPuerta $end
$var wire 1 ' sampler $end
$scope module i1 $end
$var wire 1 ( gnd $end
$var wire 1 ) vcc $end
$var wire 1 * unknown $end
$var tri1 1 + devclrn $end
$var tri1 1 , devpor $end
$var tri1 1 - devoe $end
$var wire 1 . cambiandoEstado~output_o $end
$var wire 1 / estadoPuerta~output_o $end
$var wire 1 0 clk~input_o $end
$var wire 1 1 clk~inputclkctrl_outclk $end
$var wire 1 2 llego~input_o $end
$var wire 1 3 U2|llego_prev~q $end
$var wire 1 4 U3|Add0~0_combout $end
$var wire 1 5 U3|contador~1_combout $end
$var wire 1 6 anomalia~input_o $end
$var wire 1 7 sobreCarga~input_o $end
$var wire 1 8 U1|stage[0]~6_combout $end
$var wire 1 9 U1|stage[1]~1_combout $end
$var wire 1 : U4|Add0~0_combout $end
$var wire 1 ; U1|stage[1]~3_combout $end
$var wire 1 < U1|reset2_reg~q $end
$var wire 1 = U4|Add0~1 $end
$var wire 1 > U4|Add0~3 $end
$var wire 1 ? U4|Add0~5 $end
$var wire 1 @ U4|Add0~6_combout $end
$var wire 1 A U4|contador~1_combout $end
$var wire 1 B U4|Add0~7 $end
$var wire 1 C U4|Add0~8_combout $end
$var wire 1 D U4|Add0~9 $end
$var wire 1 E U4|Add0~10_combout $end
$var wire 1 F U4|contador~0_combout $end
$var wire 1 G U6|Equal0~0_combout $end
$var wire 1 H U4|Add0~4_combout $end
$var wire 1 I U4|contador~2_combout $end
$var wire 1 J U4|Add0~2_combout $end
$var wire 1 K U4|contador~3_combout $end
$var wire 1 L U6|Equal0~1_combout $end
$var wire 1 M U8|llego_prev~q $end
$var wire 1 N U8|capturado~0_combout $end
$var wire 1 O U8|capturado~q $end
$var wire 1 P U1|stage[1]~0_combout $end
$var wire 1 Q U1|stage[1]~2_combout $end
$var wire 1 R U1|stage[1]~4_combout $end
$var wire 1 S U1|stage[1]~5_combout $end
$var wire 1 T U1|process_0~0_combout $end
$var wire 1 U U1|reset1_reg~q $end
$var wire 1 V U3|Add0~5 $end
$var wire 1 W U3|Add0~6_combout $end
$var wire 1 X U3|contador~0_combout $end
$var wire 1 Y U3|Add0~7 $end
$var wire 1 Z U3|Add0~8_combout $end
$var wire 1 [ U3|Add0~9 $end
$var wire 1 \ U3|Add0~10_combout $end
$var wire 1 ] U5|Equal0~0_combout $end
$var wire 1 ^ U3|Add0~1 $end
$var wire 1 _ U3|Add0~2_combout $end
$var wire 1 ` U3|contador~2_combout $end
$var wire 1 a U3|Add0~3 $end
$var wire 1 b U3|Add0~4_combout $end
$var wire 1 c U5|Equal0~1_combout $end
$var wire 1 d U7|llego_prev~q $end
$var wire 1 e U7|capturado~0_combout $end
$var wire 1 f U7|capturado~q $end
$var wire 1 g U1|clear_reg~0_combout $end
$var wire 1 h U1|clear_reg~1_combout $end
$var wire 1 i U1|clear_reg~q $end
$var wire 1 j U2|capturado~0_combout $end
$var wire 1 k U2|capturado~q $end
$var wire 1 l estadoPuerta~0_combout $end
$var wire 1 m U3|contador [5] $end
$var wire 1 n U3|contador [4] $end
$var wire 1 o U3|contador [3] $end
$var wire 1 p U3|contador [2] $end
$var wire 1 q U3|contador [1] $end
$var wire 1 r U3|contador [0] $end
$var wire 1 s U4|contador [5] $end
$var wire 1 t U4|contador [4] $end
$var wire 1 u U4|contador [3] $end
$var wire 1 v U4|contador [2] $end
$var wire 1 w U4|contador [1] $end
$var wire 1 x U4|contador [0] $end
$var wire 1 y U1|stage [1] $end
$var wire 1 z U1|stage [0] $end
$upscope $end
$upscope $end
$enddefinitions $end
#0
$dumpvars
0!
0"
0#
0$
0%
0&
x'
0(
1)
x*
1+
1,
1-
0.
0/
00
01
02
03
14
15
06
07
08
19
1:
0;
0<
0=
1>
0?
0@
0A
1B
0C
0D
0E
0F
0G
0H
0I
0J
0K
0L
0M
0N
0O
0P
1Q
1R
0S
1T
0U
0V
0W
0X
1Y
0Z
0[
0\
0]
0^
0_
0`
1a
0b
0c
0d
0e
0f
0g
0h
0i
0j
0k
0l
0r
0q
0p
0o
0n
0m
0x
0w
0v
0u
0t
0s
0z
0y
$end
#5000
1"
10
11
0'
#10000
0"
00
01
1'
#15000
1"
10
11
0'
#20000
0"
00
01
1'
#25000
1"
10
11
0'
#30000
0"
00
01
1'
#35000
1"
10
11
0'
#40000
0"
00
01
1'
#45000
1"
10
11
0'
#50000
0"
00
01
1'
#55000
1"
10
11
0'
#60000
0"
00
01
1'
#65000
1"
10
11
0'
#70000
0"
00
01
1'
#75000
1"
10
11
0'
#80000
0"
00
01
1'
#85000
1"
10
11
0'
#90000
0"
00
01
1'
#95000
1"
10
11
0'
#100000
1#
0"
12
00
01
1'
1j
#105000
1"
10
11
0'
13
1k
09
18
1.
1%
0R
0Q
#110000
0"
00
01
1'
#115000
1"
10
11
0'
1U
1z
0T
1;
19
08
1S
1R
1Q
0S
18
#120000
0"
00
01
1'
#125000
1"
10
11
0'
1r
1^
04
1_
05
1`
#130000
0"
00
01
1'
#135000
1"
10
11
0'
1q
0r
0a
0_
0^
14
1b
0`
1a
1_
15
0b
1`
#140000
0"
00
01
1'
#145000
1"
10
11
0'
1r
1^
04
0a
0_
05
1b
0`
#150000
0"
00
01
1'
#155000
1"
10
11
0'
1p
0q
0r
1V
0b
1a
1_
0^
14
1W
0V
1b
1`
0_
15
1X
0W
0`
0X
#160000
0"
00
01
1'
#165000
1"
10
11
0'
1r
1^
04
1_
05
1`
#170000
0#
0"
02
00
01
1'
#175000
1"
10
11
0'
1q
0r
03
0a
0_
0^
14
1V
0b
0`
1a
1_
15
1W
0V
1b
1`
1X
0W
0X
#180000
0"
00
01
1'
#185000
1"
10
11
0'
1r
1^
04
0a
0_
05
1V
0b
0`
1W
1X
#190000
0"
00
01
1'
#195000
1"
10
11
0'
0p
0q
1o
0r
0V
1b
1a
1_
1]
0Y
0W
0^
14
1Y
1W
0b
1`
0X
15
1Z
0_
0Z
1X
0`
#200000
0"
00
01
1'
#205000
1"
10
11
0'
1r
0]
1^
04
05
1_
1`
#210000
0"
00
01
1'
#215000
1"
10
11
0'
1q
0r
0a
0_
1]
0^
14
1b
0`
1c
0X
1a
1_
1e
0b
#220000
0"
00
01
1'
#225000
1"
10
11
0'
1f
1d
0q
0o
09
0c
1`
0_
1X
15
0]
0W
1l
0R
0Q
0`
0X
1/
1&
1S
08
#230000
0"
00
01
1'
#235000
1"
10
11
0'
0d
1r
0U
1y
1<
0z
1^
04
1P
0;
1_
05
1R
1Q
0S
1`
1S
0r
0^
14
0_
15
0`
#240000
0"
00
01
1'
#245000
1"
10
11
0'
1x
1=
0:
1J
1K
#250000
0"
00
01
1'
#255000
1"
10
11
0'
1w
0x
0>
0J
0=
1:
1H
0K
1>
1J
1I
0H
1K
0I
#260000
0"
00
01
1'
#265000
1"
10
11
0'
1x
1=
0:
0>
0J
1H
0K
1I
#270000
0"
00
01
1'
#275000
1"
10
11
0'
0w
1v
0x
1>
1J
1?
0H
0=
1:
0?
1H
1K
1@
0I
0J
0@
1I
1A
0K
0A
#280000
0"
00
01
1'
#285000
1"
10
11
0'
1x
1=
0:
1J
1K
#290000
0"
00
01
1'
#295000
1"
10
11
0'
1w
0x
0>
0J
0=
1:
1?
0H
0K
1>
1J
1@
0I
0?
1H
1K
1A
0@
1I
0A
#300000
0"
00
01
1'
#305000
1"
10
11
0'
1x
1=
0:
0>
0J
1?
0H
0K
1@
0I
1A
#310000
0"
00
01
1'
#315000
1"
10
11
0'
0w
0v
1u
0x
1>
1J
0?
1H
0B
0@
0=
1:
0H
1K
1B
1@
1I
1C
0A
0J
0I
0C
1A
0K
#320000
0"
00
01
1'
#325000
1"
10
11
0'
1x
1=
0:
1J
1K
#330000
0"
00
01
1'
#335000
1"
10
11
0'
1w
0x
0>
0J
0=
1:
1H
0K
1>
1J
1I
0H
1K
0I
#340000
0"
00
01
1'
#345000
1"
10
11
0'
1x
1=
0:
0>
0J
1H
0K
1I
#350000
0"
00
01
1'
#355000
1"
10
11
0'
0w
1v
0x
1>
1J
1?
0H
0=
1:
0?
1H
1K
0B
0@
0I
0J
1B
1@
1I
1C
0A
0K
0C
1A
#360000
0"
00
01
1'
#365000
1"
10
11
0'
1x
1=
0:
1J
1K
#370000
0"
00
01
1'
#375000
1"
10
11
0'
1w
0x
0>
0J
0=
1:
1?
0H
0K
1>
1J
0B
0@
0I
0?
1H
1K
1C
0A
1B
1@
1I
0C
1A
#380000
0"
00
01
1'
#385000
1"
10
11
0'
1x
1=
0:
0>
0J
1?
0H
0K
0B
0@
0I
1C
0A
#390000
0"
00
01
1'
#395000
1"
10
11
0'
0w
0v
1t
0u
0x
1>
1J
0?
1H
1D
0C
1B
1@
0=
1:
0H
1K
0@
1I
1E
0D
1C
1A
0J
0I
0A
1F
0E
0K
0F
#400000
0"
00
01
1'
#405000
1"
10
11
0'
1x
1=
0:
1J
1K
#410000
0"
00
01
1'
#415000
1"
10
11
0'
1w
0x
0>
0J
0=
1:
1H
0K
1>
1J
1I
0H
1K
0I
#420000
0"
00
01
1'
#425000
1"
10
11
0'
1x
1=
0:
0>
0J
1H
0K
1I
#430000
0"
00
01
1'
#435000
1"
10
11
0'
0w
1v
0x
1>
1J
1?
0H
0=
1:
0?
1H
1K
1@
0I
0J
0@
1I
1A
0K
0A
#440000
0"
00
01
1'
#445000
1"
10
11
0'
1x
1=
0:
1J
1K
#450000
0"
00
01
1'
#455000
1"
10
11
0'
1w
0x
0>
0J
0=
1:
1?
0H
0K
1>
1J
1@
0I
0?
1H
1K
1A
0@
1I
0A
#460000
0"
00
01
1'
#465000
1"
10
11
0'
1x
1=
0:
0>
0J
1?
0H
0K
1@
0I
1A
#470000
0"
00
01
1'
#475000
1"
10
11
0'
0w
0v
1u
0x
1>
1J
0?
1H
0B
0@
0=
1:
0H
1K
1B
1@
1I
1D
0C
0A
0J
0I
0D
1C
1A
1E
0K
0E
1F
0F
#480000
0"
00
01
1'
#485000
1"
10
11
0'
1x
1=
0:
1J
1K
#490000
0"
00
01
1'
#495000
1"
10
11
0'
1w
0x
0>
0J
0=
1:
1H
0K
1>
1J
1I
0H
1K
0I
#500000
0"
00
01
1'
#505000
1"
10
11
0'
1x
1=
0:
0>
0J
1H
0K
1I
#510000
0"
00
01
1'
#515000
1"
10
11
0'
0w
1v
0x
1>
1J
1?
0H
0=
1:
0?
1H
1K
0B
0@
0I
0J
1B
1@
1I
1D
0C
0A
0K
0D
1C
1A
1E
0E
1F
0F
#520000
0"
00
01
1'
#525000
1"
10
11
0'
1x
1=
0:
1J
1K
#530000
0"
00
01
1'
#535000
1"
10
11
0'
1w
0x
0>
0J
0=
1:
1?
0H
0K
1>
1J
0B
0@
0I
0?
1H
1K
1D
0C
0A
1B
1@
1I
1E
0D
1C
1A
1F
0E
0F
#540000
0"
00
01
1'
#545000
1"
10
11
0'
1x
1=
0:
0>
0J
1?
0H
0K
0B
0@
0I
1D
0C
0A
1E
1F
#550000
0"
00
01
1'
#555000
1"
10
11
0'
0w
0v
1s
0t
0u
0x
1>
1J
0?
1H
0E
0D
1C
1B
1@
0=
1:
0H
1K
0@
1I
0F
1E
0C
1A
0J
0I
0A
1F
0K
#560000
0"
00
01
1'
#565000
1"
10
11
0'
1x
1=
0:
1J
1K
#570000
0"
00
01
1'
#575000
1"
10
11
0'
1w
0x
0>
0J
0=
1:
1H
0K
1>
1J
1I
0H
1K
0I
#580000
0"
00
01
1'
#585000
1"
10
11
0'
1x
1=
0:
0>
0J
1H
0K
1I
#590000
0"
00
01
1'
#595000
1"
10
11
0'
0w
1v
0x
1>
1J
1?
0H
0=
1:
0?
1H
1K
1@
0I
0J
0@
1I
1A
0K
0A
#600000
0"
00
01
1'
#605000
1"
10
11
0'
1x
1=
0:
1J
1K
#610000
0"
00
01
1'
#615000
1"
10
11
0'
1w
0x
0>
0J
0=
1:
1?
0H
0K
1>
1J
1@
0I
0?
1H
1K
1A
0@
1I
0A
#620000
0"
00
01
1'
#625000
1"
10
11
0'
1x
1=
0:
0>
0J
1?
0H
0K
1@
0I
1A
#630000
0"
00
01
1'
#635000
1"
10
11
0'
0w
0v
1u
0x
1>
1J
0?
1H
0B
0@
0=
1:
0H
1K
1B
1@
1I
1C
0A
0J
0I
0C
1A
0K
#640000
0"
00
01
1'
#645000
1"
10
11
0'
1x
1G
1=
0:
1J
1K
#650000
0"
00
01
1'
#655000
1"
10
11
0'
1w
0x
0>
0J
0G
0=
1:
1H
0K
1>
1J
1I
0H
1K
0I
#660000
0"
00
01
1'
#665000
1"
10
11
0'
1x
1G
1=
0:
0>
0J
1H
0K
1I
#670000
0"
00
01
1'
#675000
1"
10
11
0'
0w
1v
0x
1L
0I
0F
0A
1>
1J
1?
0H
0G
0=
1:
1N
0?
1H
1K
0B
0@
0L
1F
1A
0J
1B
1@
1I
1C
0A
0N
0K
0C
1A
#680000
0"
00
01
1'
#685000
1"
10
11
0'
1x
1G
1=
0:
1L
0I
0F
0A
1J
1N
#690000
0"
00
01
1'
#695000
1"
10
11
0'
1O
1M
0v
0s
0u
0x
1g
0P
0L
1K
1I
1F
1A
0H
0G
0E
0@
0=
1:
0l
1h
0R
0Q
0I
0F
0A
0J
0/
0&
0S
0K
#700000
0"
00
01
1'
#705000
1"
10
11
0'
1i
0y
0M
1x
0<
0j
0e
0N
0h
1T
1=
0:
18
1J
1K
0x
0=
1:
0J
0K
#710000
0"
00
01
1'
#715000
1"
10
11
0'
0i
0f
1U
0O
1z
0k
0g
19
0T
1;
08
0.
0%
1R
1Q
1S
0S
18
#720000
0"
00
01
1'
#725000
1"
10
11
0'
1r
1^
04
1_
05
1`
#730000
0"
00
01
1'
#735000
1"
10
11
0'
1q
0r
0a
0_
0^
14
1b
0`
1a
1_
15
0b
1`
#740000
0"
00
01
1'
#745000
1"
10
11
0'
1r
1^
04
0a
0_
05
1b
0`
#750000
0"
00
01
1'
#755000
1"
10
11
0'
1p
0q
0r
1V
0b
1a
1_
0^
14
1W
0V
1b
1`
0_
15
1X
0W
0`
0X
#760000
0"
00
01
1'
#765000
1"
10
11
0'
1r
1^
04
1_
05
1`
#770000
0"
00
01
1'
#775000
1"
10
11
0'
1q
0r
0a
0_
0^
14
1V
0b
0`
1a
1_
15
1W
0V
1b
1`
1X
0W
0X
#780000
0"
00
01
1'
#785000
1"
10
11
0'
1r
1^
04
0a
0_
05
1V
0b
0`
1W
1X
#790000
0"
00
01
1'
#795000
1"
10
11
0'
0p
0q
1o
0r
0V
1b
1a
1_
1]
0Y
0W
0^
14
1Y
1W
0b
1`
0X
15
1Z
0_
0Z
1X
0`
#800000
1#
0"
12
00
01
1'
1j
#805000
1"
10
11
0'
1r
13
1k
0]
1^
04
1.
1%
05
1_
1`
#810000
0"
00
01
1'
#815000
1"
10
11
0'
1q
0r
0a
0_
1]
0^
14
1b
0`
1c
0X
1a
1_
1e
0b
#820000
0"
00
01
1'
#825000
1"
10
11
0'
1f
1d
0q
0o
09
0c
1`
0_
1X
15
0]
0W
1l
0R
0Q
0`
0X
1/
1&
1S
08
#830000
0"
00
01
1'
#835000
1"
10
11
0'
0d
1r
0U
1y
1<
0z
1^
04
1P
0;
1_
05
1R
1Q
0S
1`
1S
0r
0^
14
0_
15
0`
#840000
0"
00
01
1'
#845000
1"
10
11
0'
1x
1=
0:
1J
1K
#850000
0"
00
01
1'
#855000
1"
10
11
0'
1w
0x
0>
0J
0=
1:
1H
0K
1>
1J
1I
0H
1K
0I
#860000
0"
00
01
1'
#865000
1"
10
11
0'
1x
1=
0:
0>
0J
1H
0K
1I
#870000
0#
0"
02
00
01
1'
#875000
1"
10
11
0'
0w
1v
0x
03
1>
1J
1?
0H
0=
1:
0?
1H
1K
1@
0I
0J
0@
1I
1A
0K
0A
#880000
0"
00
01
1'
#885000
1"
10
11
0'
1x
1=
0:
1J
1K
#890000
0"
00
01
1'
#895000
1"
10
11
0'
1w
0x
0>
0J
0=
1:
1?
0H
0K
1>
1J
1@
0I
0?
1H
1K
1A
0@
1I
0A
#900000
0"
00
01
1'
#905000
1"
10
11
0'
1x
1=
0:
0>
0J
1?
0H
0K
1@
0I
1A
#910000
0"
00
01
1'
#915000
1"
10
11
0'
0w
0v
1u
0x
1>
1J
0?
1H
0B
0@
0=
1:
0H
1K
1B
1@
1I
1C
0A
0J
0I
0C
1A
0K
#920000
0"
00
01
1'
#925000
1"
10
11
0'
1x
1=
0:
1J
1K
#930000
0"
00
01
1'
#935000
1"
10
11
0'
1w
0x
0>
0J
0=
1:
1H
0K
1>
1J
1I
0H
1K
0I
#940000
0"
00
01
1'
#945000
1"
10
11
0'
1x
1=
0:
0>
0J
1H
0K
1I
#950000
0"
00
01
1'
#955000
1"
10
11
0'
0w
1v
0x
1>
1J
1?
0H
0=
1:
0?
1H
1K
0B
0@
0I
0J
1B
1@
1I
1C
0A
0K
0C
1A
#960000
0"
00
01
1'
#965000
1"
10
11
0'
1x
1=
0:
1J
1K
#970000
0"
00
01
1'
#975000
1"
10
11
0'
1w
0x
0>
0J
0=
1:
1?
0H
0K
1>
1J
0B
0@
0I
0?
1H
1K
1C
0A
1B
1@
1I
0C
1A
#980000
0"
00
01
1'
#985000
1"
10
11
0'
1x
1=
0:
0>
0J
1?
0H
0K
0B
0@
0I
1C
0A
#990000
0"
00
01
1'
#995000
1"
10
11
0'
0w
0v
1t
0u
0x
1>
1J
0?
1H
1D
0C
1B
1@
0=
1:
0H
1K
0@
1I
1E
0D
1C
1A
0J
0I
0A
1F
0E
0K
0F
