contadorPersonas/simulation/qsim/contadorPersonas.msim.vcd
$comment
	File created using the following command:
		vcd file contadorPersonas.msim.vcd -direction
$end
$date
	Sat Mar 29 12:25:45 2025
$end
$version
	ModelSim Version 10.1d
$end
$timescale
	1ps
$end
$scope module contadorPersonas_vlg_vec_tst $end
$var reg 1 ! clk $end
$var reg 1 " personaEntra $end
$var reg 1 # personaSale $end
$var reg 1 $ reset $end
$var wire 1 % cuenta [3] $end
$var wire 1 & cuenta [2] $end
$var wire 1 ' cuenta [1] $end
$var wire 1 ( cuenta [0] $end
$var wire 1 ) sampler $end
$scope module i1 $end
$var wire 1 * gnd $end
$var wire 1 + vcc $end
$var wire 1 , unknown $end
$var tri1 1 - devclrn $end
$var tri1 1 . devpor $end
$var tri1 1 / devoe $end
$var wire 1 0 cuenta[0]~output_o $end
$var wire 1 1 cuenta[1]~output_o $end
$var wire 1 2 cuenta[2]~output_o $end
$var wire 1 3 cuenta[3]~output_o $end
$var wire 1 4 clk~input_o $end
$var wire 1 5 clk~inputclkctrl_outclk $end
$var wire 1 6 personaEntra~input_o $end
$var wire 1 7 personaSale~input_o $end
$var wire 1 8 process_0~0_combout $end
$var wire 1 9 cnt[1]~1_combout $end
$var wire 1 : cnt[1]~2_combout $end
$var wire 1 ; reset~input_o $end
$var wire 1 < cnt[2]~3_combout $end
$var wire 1 = cnt[2]~4_combout $end
$var wire 1 > cnt[3]~5_combout $end
$var wire 1 ? cnt[3]~6_combout $end
$var wire 1 @ LessThan0~0_combout $end
$var wire 1 A cnt~0_combout $end
$var wire 1 B cnt [3] $end
$var wire 1 C cnt [2] $end
$var wire 1 D cnt [1] $end
$var wire 1 E cnt [0] $end
$upscope $end
$upscope $end
$enddefinitions $end
#0
$dumpvars
0!
0"
0#
0$
0(
0'
0&
0%
x)
0*
1+
x,
1-
1.
1/
00
01
02
03
04
05
06
07
08
19
0:
0;
1<
0=
1>
0?
0@
0A
0E
0D
0C
0B
$end
#10000
1!
1#
14
17
15
0)
0<
#20000
0!
04
05
1)
#30000
1!
14
15
0)
#40000
0#
0!
07
04
05
1)
1<
#50000
1!
14
15
0)
#60000
0!
04
05
1)
#70000
1!
14
15
0)
#80000
1"
0!
16
04
05
1)
1A
09
18
1?
0>
0?
#90000
1!
14
15
0)
1E
0A
1@
1:
10
1(
#100000
0"
0!
06
04
05
1)
1A
19
08
0:
#110000
1!
14
15
0)
#120000
0!
04
05
1)
#130000
1!
14
15
0)
#140000
0!
04
05
1)
#150000
1!
14
15
0)
#160000
0!
04
05
1)
#170000
1!
14
15
0)
#180000
1"
0!
16
04
05
1)
0A
09
18
1:
#190000
1!
14
15
0)
0E
1D
1A
00
11
0(
1'
#200000
0"
0!
06
04
05
1)
0A
19
08
#210000
1!
14
15
0)
#220000
0!
04
05
1)
#230000
1!
14
15
0)
#240000
0!
04
05
1)
#250000
1!
14
15
0)
#260000
0!
04
05
1)
#270000
1!
14
15
0)
#280000
1"
0!
16
04
05
1)
1A
09
18
#290000
1!
14
15
0)
1E
0A
0<
0:
10
1(
1=
#300000
0"
0!
06
04
05
1)
1A
1<
19
08
0=
1:
#310000
1#
1!
17
14
15
0)
0A
09
#320000
0!
04
05
1)
#330000
1!
14
15
0)
0E
1A
0:
00
0(
#340000
0#
0!
07
04
05
1)
0A
19
1:
#350000
1!
14
15
0)
#360000
0!
04
05
1)
#370000
1!
14
15
0)
#380000
1"
0!
16
04
05
1)
1A
09
18
#390000
1!
14
15
0)
1E
0A
0<
0:
10
1(
1=
#400000
0"
0!
06
04
05
1)
1A
1<
19
08
0=
1:
#410000
1!
14
15
0)
#420000
0!
04
05
1)
#430000
1!
14
15
0)
#440000
0!
04
05
1)
#450000
1!
14
15
0)
#460000
0!
04
05
1)
#470000
1!
14
15
0)
#480000
1"
0!
16
04
05
1)
0A
0<
09
18
1=
0:
#490000
1!
14
15
0)
0E
1C
0D
1A
1<
0=
00
12
01
0(
1&
0'
1=
#500000
0"
0!
06
04
05
1)
0A
19
08
#510000
1!
14
15
0)
#520000
0!
04
05
1)
#530000
1!
14
15
0)
#540000
0!
04
05
1)
#550000
1!
14
15
0)
#560000
0!
04
05
1)
#570000
1!
14
15
0)
#580000
1"
0!
16
04
05
1)
1A
09
18
#590000
1!
14
15
0)
1E
0A
1:
10
1(
#600000
0"
0!
06
04
05
1)
1A
19
08
0:
#610000
1#
1!
17
14
15
0)
0A
09
#620000
0!
04
05
1)
#630000
1!
14
15
0)
0E
1A
0<
1:
00
0(
0=
#640000
0#
0!
07
04
05
1)
0A
1<
19
1=
0:
#650000
1!
14
15
0)
#660000
0!
04
05
1)
#670000
1!
14
15
0)
#680000
1"
0!
16
04
05
1)
1A
09
18
#690000
1!
14
15
0)
1E
0A
1:
10
1(
#700000
0"
0!
06
04
05
1)
1A
19
08
0:
#710000
1!
14
15
0)
#720000
0!
04
05
1)
#730000
1!
14
15
0)
#740000
0!
04
05
1)
#750000
1!
14
15
0)
#760000
0!
04
05
1)
#770000
1!
14
15
0)
#780000
1"
0!
16
04
05
1)
0A
09
18
1:
#790000
1!
14
15
0)
0E
1D
1A
00
11
0(
1'
#800000
0"
0!
06
04
05
1)
0A
19
08
#810000
1!
14
15
0)
#820000
0!
04
05
1)
#830000
1!
14
15
0)
#840000
0!
04
05
1)
#850000
1!
14
15
0)
#860000
0!
04
05
1)
#870000
1!
14
15
0)
#880000
1"
0!
16
04
05
1)
1A
09
18
#890000
1!
14
15
0)
1E
0A
1>
0<
0:
10
1(
1?
0=
#900000
0"
0!
06
04
05
1)
1A
1<
19
08
1=
0?
1:
0>
#910000
1#
1!
17
14
15
0)
0A
09
#920000
0!
04
05
1)
#930000
1!
14
15
0)
0E
1A
0:
00
0(
#940000
0#
0!
07
04
05
1)
0A
19
1:
#950000
1!
14
15
0)
#960000
0!
04
05
1)
#970000
1!
14
15
0)
#980000
1"
0!
16
04
05
1)
1A
09
18
#990000
1!
14
15
0)
1E
0A
1>
0<
0:
10
1(
1?
0=
