sensorPersonas/simulation/qsim/sensorPersonas.msim.vcd
$comment
	File created using the following command:
		vcd file sensorPersonas.msim.vcd -direction
$end
$date
	Wed Mar 19 22:49:06 2025
$end
$version
	ModelSim Version 10.1d
$end
$timescale
	1ps
$end
$scope module sensorPersonas_vlg_vec_tst $end
$var reg 1 ! clk $end
$var reg 1 " sensorA $end
$var reg 1 # sensorB $end
$var wire 1 $ personaEntra $end
$var wire 1 % personaSale $end
$var wire 1 & sampler $end
$scope module i1 $end
$var wire 1 ' gnd $end
$var wire 1 ( vcc $end
$var wire 1 ) unknown $end
$var tri1 1 * devclrn $end
$var tri1 1 + devpor $end
$var tri1 1 , devoe $end
$var wire 1 - personaEntra~output_o $end
$var wire 1 . personaSale~output_o $end
$var wire 1 / clk~input_o $end
$var wire 1 0 clk~inputclkctrl_outclk $end
$var wire 1 1 sensorB~input_o $end
$var wire 1 2 sensorBprev~q $end
$var wire 1 3 sensorA~input_o $end
$var wire 1 4 sensorAprev~feeder_combout $end
$var wire 1 5 sensorAprev~q $end
$var wire 1 6 process_0~1_combout $end
$var wire 1 7 primeroA~0_combout $end
$var wire 1 8 primeroB~0_combout $end
$var wire 1 9 primeroB~1_combout $end
$var wire 1 : primeroB~q $end
$var wire 1 ; primeroA~1_combout $end
$var wire 1 < primeroA~q $end
$var wire 1 = process_0~0_combout $end
$var wire 1 > personaEntra~reg0_q $end
$var wire 1 ? personaSale~2_combout $end
$var wire 1 @ personaSale~reg0_q $end
$upscope $end
$upscope $end
$enddefinitions $end
#0
$dumpvars
0!
1"
0#
0$
0%
x&
0'
1(
x)
1*
1+
1,
0-
0.
0/
00
01
02
13
14
05
16
17
08
09
0:
1;
0<
0=
0>
0?
0@
$end
#10000
1!
1/
10
0&
1<
15
06
#20000
0!
0/
00
1&
#30000
1!
1/
10
0&
#40000
0!
0/
00
1&
#50000
0"
1!
03
1/
10
0&
07
04
0;
#60000
0!
0/
00
1&
#70000
1!
1/
10
0&
0<
05
#80000
0!
0/
00
1&
#90000
1!
1/
10
0&
#100000
0!
0/
00
1&
#110000
1!
1/
10
0&
#120000
0!
0/
00
1&
#130000
1!
1/
10
0&
#140000
0!
0/
00
1&
#150000
1!
1/
10
0&
#160000
0!
0/
00
1&
#170000
1!
1/
10
0&
#180000
0!
0/
00
1&
#190000
1!
1/
10
0&
#200000
0!
0/
00
1&
#210000
1!
1/
10
0&
#220000
0!
0/
00
1&
#230000
1!
1/
10
0&
#240000
0!
0/
00
1&
#250000
1!
1/
10
0&
#260000
0!
0/
00
1&
#270000
1!
1/
10
0&
#280000
0!
0/
00
1&
#290000
1!
1/
10
0&
#300000
0!
0/
00
1&
#310000
1!
1/
10
0&
#320000
0!
0/
00
1&
#330000
1!
1/
10
0&
#340000
0!
0/
00
1&
#350000
1!
1/
10
0&
#360000
0!
0/
00
1&
#370000
1!
1/
10
0&
#380000
0!
0/
00
1&
#390000
1!
1/
10
0&
#400000
0!
0/
00
1&
#410000
1!
1/
10
0&
#420000
0!
0/
00
1&
#430000
1!
1/
10
0&
#440000
0!
0/
00
1&
#450000
1!
1/
10
0&
#460000
0!
0/
00
1&
#470000
1!
1/
10
0&
#480000
0!
0/
00
1&
#490000
1!
1/
10
0&
#500000
1#
0!
11
0/
00
1&
18
17
19
#510000
1!
1/
10
0&
1:
12
#520000
0!
0/
00
1&
#530000
1!
1/
10
0&
#540000
0!
0/
00
1&
#550000
1"
1!
13
1/
10
0&
1?
16
14
09
#560000
0!
0/
00
1&
#570000
1!
1/
10
0&
0:
15
1@
0?
1;
19
08
06
1.
1%
09
0;
#580000
0!
0/
00
1&
#590000
1!
1/
10
0&
0@
0.
0%
#600000
0!
0/
00
1&
#610000
1!
1/
10
0&
#620000
0!
0/
00
1&
#630000
1!
1/
10
0&
#640000
0!
0/
00
1&
#650000
1!
1/
10
0&
#660000
0!
0/
00
1&
#670000
1!
1/
10
0&
#680000
0!
0/
00
1&
#690000
1!
1/
10
0&
#700000
0!
0/
00
1&
#710000
1!
1/
10
0&
#720000
0!
0/
00
1&
#730000
1!
1/
10
0&
#740000
0!
0/
00
1&
#750000
1!
1/
10
0&
#760000
0!
0/
00
1&
#770000
1!
1/
10
0&
#780000
0!
0/
00
1&
#790000
1!
1/
10
0&
#800000
0!
0/
00
1&
#810000
1!
1/
10
0&
#820000
0!
0/
00
1&
#830000
1!
1/
10
0&
#840000
0!
0/
00
1&
#850000
1!
1/
10
0&
#860000
0!
0/
00
1&
#870000
1!
1/
10
0&
#880000
0!
0/
00
1&
#890000
1!
1/
10
0&
#900000
0!
0/
00
1&
#910000
1!
1/
10
0&
#920000
0!
0/
00
1&
#930000
1!
1/
10
0&
#940000
0!
0/
00
1&
#950000
1!
1/
10
0&
#960000
0!
0/
00
1&
#970000
1!
1/
10
0&
#980000
0!
0/
00
1&
#990000
1!
1/
10
0&
#1000000
0#
0!
01
0/
00
1&
#1010000
1!
1/
10
0&
02
#1020000
0!
0/
00
1&
#1030000
1!
1/
10
0&
#1040000
0!
0/
00
1&
#1050000
0"
1!
03
1/
10
0&
07
04
#1060000
0!
0/
00
1&
#1070000
1!
1/
10
0&
05
#1080000
0!
0/
00
1&
#1090000
1!
1/
10
0&
#1100000
0!
0/
00
1&
#1110000
1!
1/
10
0&
#1120000
0!
0/
00
1&
#1130000
1!
1/
10
0&
#1140000
0!
0/
00
1&
#1150000
1!
1/
10
0&
#1160000
0!
0/
00
1&
#1170000
1!
1/
10
0&
#1180000
0!
0/
00
1&
#1190000
1!
1/
10
0&
#1200000
0!
0/
00
1&
#1210000
1!
1/
10
0&
#1220000
0!
0/
00
1&
#1230000
1!
1/
10
0&
#1240000
0!
0/
00
1&
#1250000
1!
1/
10
0&
#1260000
0!
0/
00
1&
#1270000
1!
1/
10
0&
#1280000
0!
0/
00
1&
#1290000
1!
1/
10
0&
#1300000
0!
0/
00
1&
#1310000
1!
1/
10
0&
#1320000
0!
0/
00
1&
#1330000
1!
1/
10
0&
#1340000
0!
0/
00
1&
#1350000
1!
1/
10
0&
#1360000
0!
0/
00
1&
#1370000
1!
1/
10
0&
#1380000
0!
0/
00
1&
#1390000
1!
1/
10
0&
#1400000
0!
0/
00
1&
#1410000
1!
1/
10
0&
#1420000
0!
0/
00
1&
#1430000
1!
1/
10
0&
#1440000
0!
0/
00
1&
#1450000
1!
1/
10
0&
#1460000
0!
0/
00
1&
#1470000
1!
1/
10
0&
#1480000
0!
0/
00
1&
#1490000
1!
1/
10
0&
#1500000
1#
0!
11
0/
00
1&
18
17
19
#1510000
1!
1/
10
0&
1:
12
#1520000
0!
0/
00
1&
#1530000
1!
1/
10
0&
#1540000
0!
0/
00
1&
#1550000
1"
1!
13
1/
10
0&
1?
16
14
09
#1560000
0!
0/
00
1&
#1570000
1!
1/
10
0&
0:
15
1@
0?
1;
19
08
06
1.
1%
09
0;
#1580000
0!
0/
00
1&
#1590000
1!
1/
10
0&
0@
0.
0%
#1600000
0!
0/
00
1&
#1610000
1!
1/
10
0&
#1620000
0!
0/
00
1&
#1630000
1!
1/
10
0&
#1640000
0!
0/
00
1&
#1650000
1!
1/
10
0&
#1660000
0!
0/
00
1&
#1670000
1!
1/
10
0&
#1680000
0!
0/
00
1&
#1690000
1!
1/
10
0&
#1700000
0!
0/
00
1&
#1710000
1!
1/
10
0&
#1720000
0!
0/
00
1&
#1730000
1!
1/
10
0&
#1740000
0!
0/
00
1&
#1750000
1!
1/
10
0&
#1760000
0!
0/
00
1&
#1770000
1!
1/
10
0&
#1780000
0!
0/
00
1&
#1790000
1!
1/
10
0&
#1800000
0!
0/
00
1&
#1810000
1!
1/
10
0&
#1820000
0!
0/
00
1&
#1830000
1!
1/
10
0&
#1840000
0!
0/
00
1&
#1850000
1!
1/
10
0&
#1860000
0!
0/
00
1&
#1870000
1!
1/
10
0&
#1880000
0!
0/
00
1&
#1890000
1!
1/
10
0&
#1900000
0!
0/
00
1&
#1910000
1!
1/
10
0&
#1920000
0!
0/
00
1&
#1930000
1!
1/
10
0&
#1940000
0!
0/
00
1&
#1950000
1!
1/
10
0&
#1960000
0!
0/
00
1&
#1970000
1!
1/
10
0&
#1980000
0!
0/
00
1&
#1990000
1!
1/
10
0&
